Loan Program,Purpose of Loan,Status,BranchCode,ApplicationId,BorrowerName,Loan Amount,Interest Rate,Total Income,Cash Available,Estimated Value,Lock Exp,Monthly Liab,Cash Req'd to Close,LTV/CLTV,P&I Payments,Ratios,Mos Reserves,PITI,Bwr Mid-FICO,Closing Date,Co-Bwr Mid-FICO,Street Address,
RURAL HOUSING 30YR - 879,Refinance,UW Approved - Full,990,1007964,AMERICA AMY,353535,2.500,1000,.00,500000,,0,.00,70.000/70.710,1396.89,59.100/59.100,0,1590.60,0,09/25/18,0,125 MAIN STREET 2ND BLOC,
FNMA 30YR FXD O/O- 683,Purchase,Submitted to Underwriting - Full,990,1007965,AMERICA AMY,350000,2.500,1000,.00,400000,,0,.00,88.000/88.000,1382.92,5.800/5.800,0,2057.91,0,09/25/18,0,125 MAIN STREET 2ND BLOC,
RURAL HOUSING 30YR - 879,Refinance,Submitted to Processing,990,1007966,AMERICA AMY,calculating,calculating,1000,.00,500000,,0,.00,70.000/70.710,1396.89,59.100/59.100,0,1590.60,0,09/25/18,0,125 MAIN STREET 2ND BLOC,
RURAL HOUSING 30YR - 879,Refinance,Submitted to Underwriting - Full,990,1007967,AMERICA AMY,353535,2.500,1000,.00,500000,,0,.00,70.000/70.710,1396.89,59.100/59.100,0,1590.60,0,09/25/18,0,125 MAIN STREET 2ND BLOC,
FNMA 30YR FXD O/O- 683,Purchase,RESPA Date present,990,1007969,AMERICA AMY,350000,2.500,1000,.00,400000,,0,.00,88.000/88.000,1382.92,96.600/96.600,0,1966.25,0,09/25/18,0,125 MAIN STREET 2ND BLOC,
RURAL HOUSING 30YR - 879,Refinance,RESPA Date present,990,1007970,AMERICA AMY,
FNMA 30YR FXD O/O- 683,Purchase,Submitted to Underwriting - Full,990,1007972,AMERICA AMY,350000,2.500,1000,.00,400000,,0,.00,88.000/88.000,1382.92,5.800/5.800,0,2057.91,0,09/25/18,0,125 MAIN STREET 2ND BLOC,
FNMA 30YR FXD O/O- 683,Purchase,Submitted to Underwriting - Full,990,1007973,AMERICA AMY,350000,2.500,1000,.00,400000,,0,.00,88.000/88.000,1382.92,5.800/5.800,0,2057.91,0,09/25/18,0,125 MAIN STREET 2ND BLOC,
FNMA 30YR FXD O/O- 683,Purchase,Submitted to Processing,990,1007975,AMERICA AMY,350000,2.500,1000,.00,400000,,0,.00,88.000/88.000,1382.92,5.800/5.800,0,2057.91,0,09/25/18,0,125 MAIN STREET 2ND BLOC,
FNMA 30YR FXD O/O- 683,Purchase,RESPA Date Not present,990,1007977,AMERICA AMY,350000,2.500,1000,.00,400000,,0,.00,88.000/88.000,1382.92,96.600/96.600,0,1966.25,0,09/25/18,0,125 MAIN STREET 2ND BLOC,
RURAL HOUSING 30YR - 879,Refinance,UW Approved - Full,990,1007979,AMERICA AMY,353535,2.500,1000,.00,500000,,0,.00,70.000/70.710,1396.89,59.100/59.100,0,1590.60,0,09/25/18,0,125 MAIN STREET 2ND BLOC,
RURAL HOUSING 30YR - 879,Refinance,RESPA Date Not present,990,1008038,HOUSE WANNA,
RURAL HOUSING 30YR - 879,Refinance,Submitted to Underwriting - Full,990,1008040,HOUSE WANNA,353535,2.500,1000,.00,500000,,0,.00,70.000/70.710,1396.89,59.100/59.100,0,1590.60,0,09/25/18,0,125 MAIN STREET 2ND BLOC,
RURAL HOUSING 30YR - 879,Refinance,UW Approved - Full,990,1008042,HOUSE WANNA,353535,2.500,1000,.00,500000,,0,.00,70.000/70.710,1396.89,59.100/59.100,0,1590.60,0,09/25/18,0,125 MAIN STREET 2ND BLOC,
FNMA 30YR FXD O/O- 683,Purchase,RESPA Date present,990,1008044,AMERICA ANDY,350000,2.500,1000,.00,400000,,0,.00,88.000/88.000,1382.92,96.600/96.600,0,1966.25,0,09/25/18,0,125 MAIN STREET 2ND BLOC,
RURAL HOUSING 30YR - 879,Refinance,Submitted to Processing,990,1008046,HOUSE WANNA,calculating,calculating,1000,.00,500000,,0,.00,70.000/70.710,1396.89,59.100/59.100,0,1590.60,0,09/25/18,0,125 MAIN STREET 2ND BLOC,
FNMA 30YR FXD O/O- 683,Purchase,Submitted to Underwriting - Full,990,1008047,AMERICA ANDY,350000,2.500,1000,.00,400000,,0,.00,88.000/88.000,1382.92,5.800/5.800,0,2057.91,0,09/25/18,0,125 MAIN STREET 2ND BLOC,
FNMA 30YR FXD O/O- 683,Purchase,Submitted to Underwriting - Full,990,1008049,AMERICA ANDY,350000,2.500,1000,.00,400000,,0,.00,88.000/88.000,1382.92,5.800/5.800,0,2057.91,0,09/25/18,0,125 MAIN STREET 2ND BLOC,
FNMA 30YR FXD O/O- 683,Purchase,Submitted to Processing,990,1008051,AMERICA ANDY,350000,2.500,1000,.00,400000,,0,.00,88.000/88.000,1382.92,5.800/5.800,0,2057.91,0,09/25/18,0,125 MAIN STREET 2ND BLOC,
FNMA 30YR FXD O/O- 683,Purchase,RESPA Date Not present,990,1008053,AMERICA ANDY,350000,2.500,1000,.00,400000,,0,.00,88.000/88.000,1382.92,96.600/96.600,0,1966.25,0,09/25/18,0,125 MAIN STREET 2ND BLOC,
RURAL HOUSING 30YR - 879,Refinance,RESPA Date present,990,1008055,HOUSE WANNA,
