Loan Program,Purpose of Loan,Status,BranchCode,ApplicationId,BorrowerName,Loan Amount,Interest Rate,Total Income,Cash Available,Estimated Value,Lock Exp,Monthly Liab,Cash Req'd to Close,LTV/CLTV,P&I Payments,Ratios,Mos Reserves,PITI,Bwr Mid-FICO,Closing Date,Co-Bwr Mid-FICO,Street Address,
FNMA 30YR FXD O/O- 683,Construction to Perm,UW Approved - Full,990,1008537,AMERICA ANDY,350000,2.500,1000,.00,400000,,0,.00,88.000/88.000,1382.92,5.800/5.800,0,2057.91,0,10/03/18,0,125 MAIN STREET 2ND BLOC,
RURAL HOUSING 30YR - 879,Purchase,UW Approved - Full,990,1008541,AMERICA ANDY,calculating,calculating,1000,.00,400000,,0,.00,87.500/88.390,1396.89,59.100/59.100,0,1590.60,0,10/04/18,0,125 MAIN STREET 2ND BLOC,
FNMA 30YR FXD O/O- 683,Purchase,UW Approved - Full,990,1008550,AMERICA ANDY,350000,2.500,1000,.00,400000,,0,.00,88.000/88.000,1382.92,5.800/5.800,0,2057.91,0,10/04/18,0,125 MAIN STREET 2ND BLOC,
VA FIXED 30YR- 41,Construction to Perm,RESPA Date Not present,990,1008552,AMERICA ANDY,calculating,calculating,calculating,calculating,calculating,calculating,calculating,.00,87.500/87.500,1400.21,40.000/40.000,0,1400.21,0,10/04/18,0,125 MAIN STREET 2ND BLOC,
RURAL HOUSING 30YR - 879,Purchase,UW Approved - Full,990,1008553,AMERICA ANDY,353535,2.500,1000,.00,400000,,0,.00,87.500/88.390,1396.89,59.100/59.100,0,1590.60,0,10/04/18,0,125 MAIN STREET 2ND BLOC,
FNMA 30YR FXD O/O- 683,Construction to Perm,Submitted to Underwriting - Full,990,1008556,AMERICA ANDY,350000,2.500,1000,.00,400000,,0,.00,88.000/88.000,1382.92,5.800/5.800,0,2057.91,0,10/04/18,0,125 MAIN STREET 2ND BLOC,
FNMA 30YR FXD O/O- 683,Construction to Perm,RESPA Date Not present,990,1008561,AMERICA ANDY,calculating,2.500,1000,.00,400000,,0,.00,88.000/88.000,1382.92,96.600/96.600,0,1966.25,0,10/04/18,0,125 MAIN STREET 2ND BLOC,
VA FIXED 30YR- 41,Construction to Perm,Submitted to Underwriting - Full,990,1008562,AMERICA ANDY,354375,2.500,1000,.00,400000,,0,.00,87.500/87.500,1400.21,49.200/49.200,0,1491.87,0,10/04/18,0,125 MAIN STREET 2ND BLOC,
FNMA 30YR FXD O/O- 683,Purchase,Submitted to Underwriting - Full,990,1008564,AMERICA ANDY,350000,2.500,1000,.00,400000,,0,.00,88.000/88.000,1382.92,5.800/5.800,0,2057.91,0,10/04/18,0,125 MAIN STREET 2ND BLOC,
RURAL HOUSING 30YR - 879,Purchase,RESPA Date Not present,990,1008568,AMERICA ANDY,353535,2.500,1000,.00,400000,,0,.00,87.500/88.390,1396.89,49.900/49.900,0,1498.94,0,10/04/18,0,125 MAIN STREET 2ND BLOC,
FNMA 30YR FXD O/O- 683,Purchase,RESPA Date present,990,1008570,AMERICA ANDY,calculating,2.500,1000,.00,400000,,0,.00,88.000/88.000,1382.92,96.600/96.600,0,1966.25,0,10/04/18,0,125 MAIN STREET 2ND BLOC,
FNMA 30YR FXD O/O- 683,Purchase,Submitted to Processing,990,1008572,AMERICA ANDY,350000,2.500,1000,.00,400000,,0,.00,88.000/88.000,1382.92,5.800/5.800,0,2057.91,0,10/04/18,0,125 MAIN STREET 2ND BLOC,
RURAL HOUSING 30YR - 879,Purchase,RESPA Date present,990,1008578,AMERICA ANDY,353535,2.500,1000,.00,400000,,0,.00,87.500/88.390,1396.89,49.900/49.900,0,1498.94,0,10/04/18,0,125 MAIN STREET 2ND BLOC,
VA FIXED 30YR- 41,Construction to Perm,UW Approved - Full,990,1008580,AMERICA ANDY,354375,2.500,1000,.00,400000,,0,.00,87.500/87.500,1400.21,49.200/49.200,0,1491.87,0,10/04/18,0,125 MAIN STREET 2ND BLOC,
FNMA 30YR FXD O/O- 683,Purchase,RESPA Date Not present,990,1008584,AMERICA ANDY,calculating,calculating,calculating,calculating,calculating,calculating,0,.00,88.000/88.000,1382.92,96.600/96.600,0,1966.25,0,10/04/18,0,125 MAIN STREET 2ND BLOC,
RURAL HOUSING 30YR - 879,Purchase,Submitted to Processing,990,1008585,AMERICA ANDY,calculating,2.500,1000,.00,400000,,0,.00,87.500/88.390,1396.89,59.100/59.100,0,1590.60,0,10/04/18,0,125 MAIN STREET 2ND BLOC,
FNMA 30YR FXD O/O- 683,Purchase,UW Approved - Full,990,1008589,AMERICA ANDY,350000,2.500,1000,.00,400000,,0,.00,88.000/88.000,1382.92,5.800/5.800,0,2057.91,0,10/04/18,0,125 MAIN STREET 2ND BLOC,
FNMA 30YR FXD O/O- 683,Construction to Perm,RESPA Date present,990,1008593,AMERICA ANDY,350000,2.500,1000,.00,400000,,0,.00,88.000/88.000,1382.92,96.600/96.600,0,1966.25,0,10/04/18,0,125 MAIN STREET 2ND BLOC,
FNMA 30YR FXD O/O- 683,Construction to Perm,Submitted to Underwriting - Full,990,1008595,AMERICA ANDY,350000,2.500,1000,.00,400000,,0,.00,88.000/88.000,1382.92,5.800/5.800,0,2057.91,0,10/04/18,0,125 MAIN STREET 2ND BLOC,
RURAL HOUSING 30YR - 879,Purchase,Submitted to Underwriting - Full,990,1008597,AMERICA ANDY,353535,2.500,1000,.00,400000,,0,.00,87.500/88.390,1396.89,59.100/59.100,0,1590.60,0,10/04/18,0,125 MAIN STREET 2ND BLOC,
FNMA 30YR FXD O/O- 683,Construction to Perm,Submitted to Processing,990,1008687,AMERICA ANDY,350000,2.500,1000,.00,400000,,0,.00,88.000/88.000,1382.92,5.800/5.800,0,2057.91,0,10/04/18,0,125 MAIN STREET 2ND BLOC,
FNMA 30YR FXD O/O- 683,Purchase,Submitted to Underwriting - Full,990,1008690,AMERICA ANDY,350000,2.500,1000,.00,400000,,0,.00,88.000/88.000,1382.92,5.800/5.800,0,2057.91,0,10/04/18,0,125 MAIN STREET 2ND BLOC,
RURAL HOUSING 30YR - 879,Purchase,Submitted to Underwriting - Full,990,1008691,AMERICA ANDY,353535,2.500,1000,.00,400000,,0,.00,87.500/88.390,1396.89,59.100/59.100,0,1590.60,0,10/04/18,0,125 MAIN STREET 2ND BLOC,
FNMA 30YR FXD O/O- 683,Construction to Perm,UW Approved - Full,990,1008694,AMERICA ANDY,350000,2.500,1000,.00,400000,,0,.00,88.000/88.000,1382.92,5.800/5.800,0,2057.91,0,10/04/18,0,125 MAIN STREET 2ND BLOC,
RURAL HOUSING 30YR - 879,Purchase,UW Approved - Full,990,1008697,AMERICA ANDY,353535,2.500,1000,.00,400000,,0,.00,87.500/88.390,1396.89,59.100/59.100,0,1590.60,0,10/04/18,0,125 MAIN STREET 2ND BLOC,
VA FIXED 30YR- 41,Construction to Perm,Submitted to Underwriting - Full,990,1008700,AMERICA ANDY,354375,2.500,1000,.00,400000,,0,.00,87.500/87.500,1400.21,49.200/49.200,0,1491.87,0,10/04/18,0,125 MAIN STREET 2ND BLOC,
FNMA 30YR FXD O/O- 683,Purchase,UW Approved - Full,990,1008702,AMERICA ANDY,350000,2.500,1000,.00,400000,,0,.00,88.000/88.000,1382.92,5.800/5.800,0,2057.91,0,10/04/18,0,125 MAIN STREET 2ND BLOC,
VA FIXED 30YR- 41,Construction to Perm,RESPA Date Not present,990,1008704,AMERICA ANDY,354375,2.500,1000,.00,400000,,0,.00,87.500/87.500,1400.21,40.000/40.000,0,1400.21,0,10/04/18,0,125 MAIN STREET 2ND BLOC,
RURAL HOUSING 30YR - 879,Purchase,UW Approved - Full,990,1008707,AMERICA ANDY,353535,2.500,1000,.00,400000,,0,.00,87.500/88.390,1396.89,59.100/59.100,0,1590.60,0,10/04/18,0,125 MAIN STREET 2ND BLOC,
FNMA 30YR FXD O/O- 683,Construction to Perm,Submitted to Underwriting - Full,990,1008710,AMERICA ANDY,350000,2.500,1000,.00,400000,,0,.00,88.000/88.000,1382.92,5.800/5.800,0,2057.91,0,10/04/18,0,125 MAIN STREET 2ND BLOC,
VA FIXED 30YR- 41,Construction to Perm,UW Approved - Full,990,1008712,AMERICA ANDY,354375,2.500,1000,.00,400000,,0,.00,87.500/87.500,1400.21,49.200/49.200,0,1491.87,0,10/04/18,0,125 MAIN STREET 2ND BLOC,
FNMA 30YR FXD O/O- 683,Construction to Perm,RESPA Date Not present,990,1008715,AMERICA ANDY,calculating,2.500,1000,.00,400000,,0,.00,88.000/88.000,1382.92,96.600/96.600,0,1966.25,0,10/04/18,0,125 MAIN STREET 2ND BLOC,
VA FIXED 30YR- 41,Construction to Perm,Submitted to Underwriting - Full,990,1008718,AMERICA ANDY,354375,2.500,1000,.00,400000,,0,.00,87.500/87.500,1400.21,49.200/49.200,0,1491.87,0,10/04/18,0,125 MAIN STREET 2ND BLOC,
FNMA 30YR FXD O/O- 683,Purchase,Submitted to Underwriting - Full,990,1008721,AMERICA ANDY,350000,2.500,1000,.00,400000,,0,.00,88.000/88.000,1382.92,5.800/5.800,0,2057.91,0,10/04/18,0,125 MAIN STREET 2ND BLOC,
RURAL HOUSING 30YR - 879,Purchase,RESPA Date Not present,990,1008723,AMERICA ANDY,353535,2.500,1000,.00,400000,,0,.00,87.500/88.390,1396.89,49.900/49.900,0,1498.94,0,10/04/18,0,125 MAIN STREET 2ND BLOC,
FNMA 30YR FXD O/O- 683,Purchase,RESPA Date present,990,1008725,AMERICA ANDY,calculating,2.500,1000,.00,400000,,0,.00,88.000/88.000,1382.92,96.600/96.600,0,1966.25,0,10/04/18,0,125 MAIN STREET 2ND BLOC,
FNMA 30YR FXD O/O- 683,Purchase,Submitted to Processing,990,1008726,AMERICA ANDY,calculating,calculating,calculating,.00,400000,,0,.00,88.000/88.000,1382.92,5.800/5.800,0,2057.91,0,10/04/18,0,125 MAIN STREET 2ND BLOC,
VA FIXED 30YR- 41,Construction to Perm,Submitted to Processing,990,1008730,AMERICA ANDY,calculating,calculating,calculating,.00,400000,,0,.00,87.500/87.500,1400.21,49.200/49.200,0,1491.87,0,10/04/18,0,125 MAIN STREET 2ND BLOC,
FNMA 30YR FXD O/O- 683,Construction to Perm,UW Approved - Full,990,1008733,AMERICA ANDY,350000,2.500,1000,.00,400000,,0,.00,88.000/88.000,1382.92,5.800/5.800,0,2057.91,0,10/04/18,0,125 MAIN STREET 2ND BLOC,
RURAL HOUSING 30YR - 879,Purchase,RESPA Date present,990,1008737,AMERICA ANDY,353535,2.500,1000,.00,400000,,0,.00,87.500/88.390,1396.89,49.900/49.900,0,1498.94,0,10/04/18,0,125 MAIN STREET 2ND BLOC,
VA FIXED 30YR- 41,Construction to Perm,UW Approved - Full,990,1008740,AMERICA ANDY,354375,2.500,1000,.00,400000,,0,.00,87.500/87.500,1400.21,49.200/49.200,0,1491.87,0,10/04/18,0,125 MAIN STREET 2ND BLOC,
FNMA 30YR FXD O/O- 683,Purchase,RESPA Date Not present,990,1008743,AMERICA ANDY,350000,2.500,1000,.00,400000,,0,.00,88.000/88.000,1382.92,96.600/96.600,0,1966.25,0,10/04/18,0,125 MAIN STREET 2ND BLOC,
RURAL HOUSING 30YR - 879,Purchase,Submitted to Processing,990,1008744,AMERICA ANDY,calculating,2.500,1000,.00,400000,,0,.00,87.500/88.390,1396.89,59.100/59.100,0,1590.60,0,10/04/18,0,125 MAIN STREET 2ND BLOC,
VA FIXED 30YR- 41,Construction to Perm,RESPA Date present,990,1008745,AMERICA ANDY,calculating,calculating,1000,.00,400000,,0,.00,87.500/87.500,1400.21,40.000/40.000,0,1400.21,0,10/04/18,0,125 MAIN STREET 2ND BLOC,
FNMA 30YR FXD O/O- 683,Purchase,UW Approved - Full,990,1008746,AMERICA ANDY,350000,2.500,1000,.00,400000,,0,.00,88.000/88.000,1382.92,5.800/5.800,0,2057.91,0,10/04/18,0,125 MAIN STREET 2ND BLOC,
FNMA 30YR FXD O/O- 683,Construction to Perm,RESPA Date present,990,1008748,AMERICA ANDY,calculating,calculating,calculating,calculating,400000,,0,.00,88.000/88.000,1382.92,96.600/96.600,0,1966.25,0,10/04/18,0,125 MAIN STREET 2ND BLOC,
FNMA 30YR FXD O/O- 683,Construction to Perm,Submitted to Underwriting - Full,990,1008749,AMERICA ANDY,350000,2.500,1000,.00,400000,,0,.00,88.000/88.000,1382.92,5.800/5.800,0,2057.91,0,10/04/18,0,125 MAIN STREET 2ND BLOC,
RURAL HOUSING 30YR - 879,Purchase,Submitted to Underwriting - Full,990,1008750,AMERICA ANDY,353535,2.500,1000,.00,400000,,0,.00,87.500/88.390,1396.89,59.100/59.100,0,1590.60,0,10/04/18,0,125 MAIN STREET 2ND BLOC,
RURAL HOUSING 30YR - 879,Refinance,RESPA Date Not present,990,1008760,HOUSE WANNA,
VA FIXED 30YR- 41,Purchase,RESPA Date Not present,990,1008764,AMERICA ANDY,354375,2.500,1000,.00,400000,,0,.00,87.500/87.500,1400.21,40.000/40.000,0,1400.21,0,10/04/18,0,125 MAIN STREET 2ND BLOC,
VA FIXED 30YR- 41,Purchase,RESPA Date present,990,1008765,AMERICA ANDY,calculating,2.500,1000,.00,400000,,0,.00,87.500/87.500,1400.21,40.000/40.000,0,1400.21,0,10/04/18,0,125 MAIN STREET 2ND BLOC,
VA FIXED 30YR- 41,Purchase,Submitted to Processing,990,1008766,AMERICA ANDY,calculating,2.500,1000,.00,400000,,0,.00,87.500/87.500,1400.21,49.200/49.200,0,1491.87,0,10/04/18,0,125 MAIN STREET 2ND BLOC,
VA FIXED 30YR- 41,Purchase,Submitted to Underwriting - Full,990,1008767,AMERICA ANDY,354375,2.500,1000,.00,400000,,0,.00,87.500/87.500,1400.21,49.200/49.200,0,1491.87,0,10/04/18,0,125 MAIN STREET 2ND BLOC,
VA FIXED 30YR- 41,Purchase,UW Approved - Full,990,1008770,AMERICA ANDY,354375,2.500,1000,.00,400000,,0,.00,87.500/87.500,1400.21,49.200/49.200,0,1491.87,0,10/04/18,0,125 MAIN STREET 2ND BLOC,
VA FIXED 30YR- 41,Purchase,UW Approved - Full,990,1008773,AMERICA ANDY,354375,2.500,1000,.00,400000,,0,.00,87.500/87.500,1400.21,49.200/49.200,0,1491.87,0,10/04/18,0,125 MAIN STREET 2ND BLOC,
VA FIXED 30YR- 41,Purchase,Submitted to Underwriting - Full,990,1008775,AMERICA ANDY,354375,2.500,1000,.00,400000,,0,.00,87.500/87.500,1400.21,49.200/49.200,0,1491.87,0,10/04/18,0,125 MAIN STREET 2ND BLOC,
FNMA 30YR FXD O/O- 683,Construction to Perm,Submitted to Processing,990,1008780,AMERICA ANDY,calculating,calculating,calculating,calculating,calculating,,0,.00,88.000/88.000,1382.92,5.800/5.800,0,2057.91,0,10/04/18,0,125 MAIN STREET 2ND BLOC,
FNMA 30YR FXD O/O- 683,Purchase,Submitted to Underwriting - Full,990,1008781,AMERICA ANDY,calculating,calculating,calculating,calculating,calculating,calculating,calculating,calculating,calculating,calculating,calculating,calculating,calculating,calculating,10/04/18,0,125 MAIN STREET 2ND BLOC,
RURAL HOUSING 30YR - 879,Purchase,Submitted to Underwriting - Full,990,1008782,AMERICA ANDY,353535,2.500,1000,.00,400000,,0,.00,87.500/88.390,1396.89,59.100/59.100,0,1590.60,0,10/04/18,0,125 MAIN STREET 2ND BLOC,
FNMA 30YR FXD O/O- 683,Construction to Perm,UW Approved - Full,990,1008783,AMERICA ANDY,350000,2.500,1000,.00,400000,,0,.00,88.000/88.000,1382.92,5.800/5.800,0,2057.91,0,10/04/18,0,125 MAIN STREET 2ND BLOC,
RURAL HOUSING 30YR - 879,Purchase,UW Approved - Full,990,1008784,AMERICA ANDY,353535,2.500,1000,.00,400000,,0,.00,87.500/88.390,1396.89,59.100/59.100,0,1590.60,0,10/04/18,0,125 MAIN STREET 2ND BLOC,
VA FIXED 30YR- 41,Purchase,Submitted to Processing,990,1008785,AMERICA ANDY,354375,2.500,1000,.00,400000,,0,.00,87.500/87.500,1400.21,49.200/49.200,0,1491.87,0,10/04/18,0,125 MAIN STREET 2ND BLOC,
VA FIXED 30YR- 41,Construction to Perm,Submitted to Underwriting - Full,990,1008786,AMERICA ANDY,354375,2.500,1000,.00,400000,,0,.00,87.500/87.500,1400.21,49.200/49.200,0,1491.87,0,10/04/18,0,125 MAIN STREET 2ND BLOC,
VA FIXED 30YR- 41,Purchase,Submitted to Underwriting - Full,990,1008787,AMERICA ANDY,354375,2.500,1000,.00,400000,,0,.00,87.500/87.500,1400.21,49.200/49.200,0,1491.87,0,10/04/18,0,125 MAIN STREET 2ND BLOC,
FNMA 30YR FXD O/O- 683,Purchase,UW Approved - Full,990,1008788,AMERICA ANDY,350000,2.500,1000,.00,400000,,0,.00,88.000/88.000,1382.92,5.800/5.800,0,2057.91,0,10/04/18,0,125 MAIN STREET 2ND BLOC,
VA FIXED 30YR- 41,Construction to Perm,RESPA Date Not present,990,1008789,AMERICA ANDY,354375,2.500,1000,.00,400000,,0,.00,87.500/87.500,1400.21,40.000/40.000,0,1400.21,0,10/04/18,0,125 MAIN STREET 2ND BLOC,
FNMA 30YR FXD O/O- 683,Construction to Perm,Submitted to Underwriting - Full,990,1008791,AMERICA ANDY,350000,2.500,1000,.00,400000,,0,.00,88.000/88.000,1382.92,5.800/5.800,0,2057.91,0,10/04/18,0,125 MAIN STREET 2ND BLOC,
VA FIXED 30YR- 41,Construction to Perm,UW Approved - Full,990,1008792,AMERICA ANDY,354375,2.500,1000,.00,400000,,0,.00,87.500/87.500,1400.21,49.200/49.200,0,1491.87,0,10/04/18,0,125 MAIN STREET 2ND BLOC,
VA FIXED 30YR- 41,Purchase,Submitted to Underwriting - Full,990,1008793,AMERICA ANDY,354375,2.500,1000,.00,400000,,0,.00,87.500/87.500,1400.21,49.200/49.200,0,1491.87,0,10/04/18,0,125 MAIN STREET 2ND BLOC,
FNMA 30YR FXD O/O- 683,Construction to Perm,RESPA Date Not present,990,1008794,AMERICA ANDY,350000,2.500,1000,.00,400000,,0,.00,88.000/88.000,1382.92,96.600/96.600,0,1966.25,0,10/04/18,0,125 MAIN STREET 2ND BLOC,
VA FIXED 30YR- 41,Construction to Perm,Submitted to Underwriting - Full,990,1008795,AMERICA ANDY,354375,2.500,1000,.00,400000,,0,.00,87.500/87.500,1400.21,49.200/49.200,0,1491.87,0,10/04/18,0,125 MAIN STREET 2ND BLOC,
VA FIXED 30YR- 41,Purchase,UW Approved - Full,990,1008796,AMERICA ANDY,354375,2.500,1000,.00,400000,,0,.00,87.500/87.500,1400.21,49.200/49.200,0,1491.87,0,10/04/18,0,125 MAIN STREET 2ND BLOC,
VA FIXED 30YR- 41,Purchase,RESPA Date present,990,1008797,AMERICA ANDY,354375,2.500,1000,.00,400000,,0,.00,87.500/87.500,1400.21,40.000/40.000,0,1400.21,0,10/04/18,0,125 MAIN STREET 2ND BLOC,
FNMA 30YR FXD O/O- 683,Purchase,Submitted to Underwriting - Full,990,1008798,AMERICA ANDY,350000,2.500,1000,.00,400000,,0,.00,88.000/88.000,1382.92,5.800/5.800,0,2057.91,0,10/04/18,0,125 MAIN STREET 2ND BLOC,
RURAL HOUSING 30YR - 879,Purchase,RESPA Date Not present,990,1008799,AMERICA ANDY,calculating,calculating,calculating,calculating,calculating,calculating,calculating,.00,87.500/88.390,1396.89,49.900/49.900,0,1498.94,0,10/04/18,0,125 MAIN STREET 2ND BLOC,
FNMA 30YR FXD O/O- 683,Purchase,RESPA Date present,990,1008800,AMERICA ANDY,calculating,2.500,1000,.00,400000,,0,.00,88.000/88.000,1382.92,96.600/96.600,0,1966.25,0,10/04/18,0,125 MAIN STREET 2ND BLOC,
FNMA 30YR FXD O/O- 683,Purchase,Submitted to Processing,990,1008801,AMERICA ANDY,350000,2.500,1000,.00,400000,,0,.00,88.000/88.000,1382.92,5.800/5.800,0,2057.91,0,10/04/18,0,125 MAIN STREET 2ND BLOC,
VA FIXED 30YR- 41,Construction to Perm,Submitted to Processing,990,1008802,AMERICA ANDY,354375,2.500,1000,.00,400000,,0,.00,87.500/87.500,1400.21,49.200/49.200,0,1491.87,0,10/04/18,0,125 MAIN STREET 2ND BLOC,
FNMA 30YR FXD O/O- 683,Construction to Perm,UW Approved - Full,990,1008803,AMERICA ANDY,350000,2.500,1000,.00,400000,,0,.00,88.000/88.000,1382.92,5.800/5.800,0,2057.91,0,10/04/18,0,125 MAIN STREET 2ND BLOC,
RURAL HOUSING 30YR - 879,Purchase,RESPA Date present,990,1008804,AMERICA ANDY,353535,2.500,1000,.00,400000,,0,.00,87.500/88.390,1396.89,49.900/49.900,0,1498.94,0,10/04/18,0,125 MAIN STREET 2ND BLOC,
VA FIXED 30YR- 41,Construction to Perm,UW Approved - Full,990,1008805,AMERICA ANDY,354375,2.500,1000,.00,400000,,0,.00,87.500/87.500,1400.21,49.200/49.200,0,1491.87,0,10/04/18,0,125 MAIN STREET 2ND BLOC,
FNMA 30YR FXD O/O- 683,Purchase,RESPA Date Not present,990,1008806,AMERICA ANDY,350000,2.500,1000,.00,400000,,0,.00,88.000/88.000,1382.92,96.600/96.600,0,1966.25,0,10/04/18,0,125 MAIN STREET 2ND BLOC,
RURAL HOUSING 30YR - 879,Purchase,Submitted to Processing,990,1008807,AMERICA ANDY,353535,2.500,1000,.00,400000,,0,.00,87.500/88.390,1396.89,59.100/59.100,0,1590.60,0,10/04/18,0,125 MAIN STREET 2ND BLOC,
VA FIXED 30YR- 41,Construction to Perm,RESPA Date present,990,1008808,AMERICA ANDY,354375,2.500,1000,.00,400000,,0,.00,87.500/87.500,1400.21,40.000/40.000,0,1400.21,0,10/04/18,0,125 MAIN STREET 2ND BLOC,
FNMA 30YR FXD O/O- 683,Purchase,UW Approved - Full,990,1008809,AMERICA ANDY,350000,2.500,1000,.00,400000,,0,.00,88.000/88.000,1382.92,5.800/5.800,0,2057.91,0,10/04/18,0,125 MAIN STREET 2ND BLOC,
VA FIXED 30YR- 41,Purchase,UW Approved - Full,990,1008810,AMERICA ANDY,354375,2.500,1000,.00,400000,,0,.00,87.500/87.500,1400.21,49.200/49.200,0,1491.87,0,10/04/18,0,125 MAIN STREET 2ND BLOC,
FNMA 30YR FXD O/O- 683,Construction to Perm,RESPA Date present,990,1008811,AMERICA ANDY,calculating,2.500,1000,.00,400000,,0,.00,88.000/88.000,1382.92,96.600/96.600,0,1966.25,0,10/04/18,0,125 MAIN STREET 2ND BLOC,
FNMA 30YR FXD O/O- 683,Construction to Perm,Submitted to Underwriting - Full,990,1008812,AMERICA ANDY,350000,2.500,1000,.00,400000,,0,.00,88.000/88.000,1382.92,5.800/5.800,0,2057.91,0,10/04/18,0,125 MAIN STREET 2ND BLOC,
RURAL HOUSING 30YR - 879,Purchase,Submitted to Underwriting - Full,990,1008813,AMERICA ANDY,353535,2.500,1000,.00,400000,,0,.00,87.500/88.390,1396.89,59.100/59.100,0,1590.60,0,10/04/18,0,125 MAIN STREET 2ND BLOC,
VA FIXED 30YR- 41,Purchase,RESPA Date Not present,990,1008814,AMERICA ANDY,354375,2.500,1000,.00,400000,,0,.00,87.500/87.500,1400.21,40.000/40.000,0,1400.21,0,10/04/18,0,125 MAIN STREET 2ND BLOC,
