Loan Program,Purpose of Loan,Status,BranchCode,ApplicationId,BorrowerName,Loan Amount,Interest Rate,Total Income,Cash Available,Estimated Value,Lock Exp,Monthly Liab,Cash Req'd to Close,LTV/CLTV,P&I Payments,Ratios,Mos Reserves,PITI,Bwr Mid-FICO,Closing Date,Co-Bwr Mid-FICO,Street Address,
FNMA 30YR FXD O/O- 683,Construction to Perm,Submitted to Underwriting - Full,990,1008280,AMERICA ANDY,350000,2.500,1000,.00,400000,,0,.00,88.000/88.000,1382.92,5.800/5.800,0,2057.91,0,10/01/18,0,125 MAIN STREET 2ND BLOC,
FNMA 30YR FXD O/O- 683,Purchase,Submitted to Underwriting - Full,990,1008298,AMERICA ANDY,350000,2.500,1000,.00,400000,,0,.00,88.000/88.000,1382.92,5.800/5.800,0,2057.91,0,10/01/18,0,125 MAIN STREET 2ND BLOC,
FNMA 30YR FXD O/O- 683,Purchase,Submitted to Underwriting - Full,990,1008300,AMERICA ANDY,350000,2.500,1000,.00,400000,,0,.00,88.000/88.000,1382.92,5.800/5.800,0,2057.91,0,10/01/18,0,125 MAIN STREET 2ND BLOC,
FNMA 30YR FXD O/O- 683,Purchase,Submitted to Underwriting - Full,990,1008319,AMERICA ANDY,350000,2.500,1000,.00,400000,,0,.00,88.000/88.000,1382.92,5.800/5.800,0,2057.91,0,10/01/18,0,125 MAIN STREET 2ND BLOC,
FNMA 30YR FXD O/O- 683,Construction to Perm,Submitted to Underwriting - Full,990,1008321,AMERICA ANDY,350000,2.500,1000,.00,400000,,0,.00,88.000/88.000,1382.92,5.800/5.800,0,2057.91,0,10/01/18,0,125 MAIN STREET 2ND BLOC,
FNMA 30YR FXD O/O- 683,Purchase,Submitted to Processing,990,1008352,AMERICA ANDY,350000,2.500,1000,.00,400000,,0,.00,88.000/88.000,1382.92,5.800/5.800,0,2057.91,0,10/01/18,0,125 MAIN STREET 2ND BLOC,
FNMA 30YR FXD O/O- 683,Purchase,Submitted to Processing,990,1008354,AMERICA ANDY,350000,2.500,1000,.00,400000,,0,.00,88.000/88.000,1382.92,5.800/5.800,0,2057.91,0,10/01/18,0,125 MAIN STREET 2ND BLOC,
FNMA 30YR FXD O/O- 683,Construction to Perm,Submitted to Processing,990,1008355,AMERICA ANDY,calculating,2.500,1000,.00,400000,,0,.00,88.000/88.000,1382.92,5.800/5.800,0,2057.91,0,10/01/18,0,125 MAIN STREET 2ND BLOC,
FNMA 30YR FXD O/O- 683,Construction to Perm,Submitted to Processing,990,1008357,AMERICA ANDY,calculating,2.500,1000,.00,400000,,0,.00,88.000/88.000,1382.92,5.800/5.800,0,2057.91,0,10/01/18,0,125 MAIN STREET 2ND BLOC,
FNMA 30YR FXD O/O- 683,Construction to Perm,Submitted to Processing,990,1008359,AMERICA ANDY,350000,2.500,1000,.00,400000,,0,.00,88.000/88.000,1382.92,5.800/5.800,0,2057.91,0,10/01/18,0,125 MAIN STREET 2ND BLOC,
FNMA 30YR FXD O/O- 683,Construction to Perm,Submitted to Processing,990,1008370,AMERICA ANDY,calculating,calculating,calculating,calculating,calculating,calculating,0,.00,88.000/88.000,1382.92,5.800/5.800,0,2057.91,0,10/01/18,0,125 MAIN STREET 2ND BLOC,
FNMA 30YR FXD O/O- 683,Construction to Perm,Submitted to Underwriting - Full,990,1008372,AMERICA ANDY,350000,2.500,1000,.00,400000,,0,.00,88.000/88.000,1382.92,5.800/5.800,0,2057.91,0,10/01/18,0,125 MAIN STREET 2ND BLOC,
FNMA 30YR FXD O/O- 683,Construction to Perm,Submitted to Underwriting - Full,990,1008376,AMERICA ANDY,350000,2.500,1000,.00,400000,,0,.00,88.000/88.000,1382.92,5.800/5.800,0,2057.91,0,10/01/18,0,125 MAIN STREET 2ND BLOC,
FNMA 30YR FXD O/O- 683,Construction to Perm,Submitted to Underwriting - Full,990,1008380,AMERICA ANDY,350000,2.500,1000,.00,400000,,0,.00,88.000/88.000,1382.92,5.800/5.800,0,2057.91,0,10/01/18,0,125 MAIN STREET 2ND BLOC,
FNMA 30YR FXD O/O- 683,Construction to Perm,Submitted to Underwriting - Full,990,1008381,AMERICA ANDY,350000,2.500,1000,.00,400000,,0,.00,88.000/88.000,1382.92,5.800/5.800,0,2057.91,0,10/01/18,0,125 MAIN STREET 2ND BLOC,
FNMA 30YR FXD O/O- 683,Construction to Perm,Submitted to Underwriting - Full,990,1008382,AMERICA ANDY,350000,2.500,1000,.00,400000,,0,.00,88.000/88.000,1382.92,5.800/5.800,0,2057.91,0,10/01/18,0,125 MAIN STREET 2ND BLOC,
FNMA 30YR FXD O/O- 683,Construction to Perm,Submitted to Underwriting - Full,990,1008383,AMERICA ANDY,350000,2.500,1000,.00,400000,,0,.00,88.000/88.000,1382.92,5.800/5.800,0,2057.91,0,10/01/18,0,125 MAIN STREET 2ND BLOC,
FNMA 30YR FXD O/O- 683,Construction to Perm,Submitted to Underwriting - Full,990,1008385,AMERICA ANDY,350000,2.500,1000,.00,400000,,0,.00,88.000/88.000,1382.92,5.800/5.800,0,2057.91,0,10/01/18,0,125 MAIN STREET 2ND BLOC,
FNMA 30YR FXD O/O- 683,Construction to Perm,Submitted to Underwriting - Full,990,1008386,AMERICA ANDY,calculating,calculating,calculating,calculating,calculating,calculating,calculating,calculating,calculating,calculating,calculating,calculating,calculating,calculating,calculating,calculating,calculating,
