Loan Program,Purpose of Loan,Status,BranchCode,ApplicationId,BorrowerName,Loan Amount,Interest Rate,Total Income,Cash Available,Estimated Value,Lock Exp,Monthly Liab,Cash Req'd to Close,LTV/CLTV,P&I Payments,Ratios,Mos Reserves,Status,PITI,Bwr Mid-FICO,Purpose of Loan,Closing Date,Co-Bwr Mid-FICO,Street Address,
990,1007762,ANDY AMERICA AMY AMERICA,990,1007764,ANDY AMERICA AMY AMERICA,1 Unit SFR,Refinance,UW Approved - Full,350000,2.500,1000,.00,500000,,0,.00,70.000/70.000,1382.92,47.500/47.500,0,TO UNDERWR,1474.58,650,FNMA 30YR FXD O/O,Refinance,09/21/18,0,125 MAIN STREET 2ND BLOC,
990,1007772,ANDY AMERICA AMY AMERICA,1 Unit SFR,Refinance,UW Approved - Full,353535,2.500,1000,.00,500000,,0,.00,70.000/70.710,1396.89,59.100/59.100,0,TO UNDERWR,1590.60,650,RURAL HOUSING 30YR,Refinance,09/21/18,0,125 MAIN STREET 2ND BLOC,
RURAL HOUSING 30YR - 879,Refinance,UW Approved - Full,990,1007807,ANDY AMERICA AMY AMERICA,353535,2.500,1000,.00,500000,,0,.00,70.000/70.710,1396.89,59.100/59.100,0,1590.60,650,09/21/18,0,125 MAIN STREET 2ND BLOC,
FNMA 30YR FXD O/O- 683,Purchase,UW Approved - Full,990,1007810,ANDY AMERICA AMY AMERICA,350000,2.500,1000,.00,400000,,0,.00,88.000/88.000,1382.92,5.800/5.800,0,2057.91,650,09/21/18,0,125 MAIN STREET 2ND BLOC,
RURAL HOUSING 30YR STREAMLINE W/O APPSAL - 2159,Streamline Refi,RESPA Date Not present,990,1007812,ANDY AMERICA AMY AMERICA,350000,2.500,1000,.00,400000,,0,.00,87.500/87.500,1382.92,48.400/48.400,0,1483.95,0,09/21/18,0,125 MAIN STREET 2ND BLOC,
RURAL HOUSING 30YR - 879,Refinance,RESPA Date present,990,1007813,ANDY AMERICA AMY AMERICA,350000,2.500,1000,.00,500000,,0,.00,70.000/70.000,1382.92,48.400/48.400,0,1483.95,0,09/21/18,0,125 MAIN STREET 2ND BLOC,
RURAL HOUSING 30YR STREAMLINE W/O APPSAL - 2159,Streamline Refi,RESPA Date present,990,1007815,ANDY AMERICA AMY AMERICA,350000,2.500,1000,.00,400000,,0,.00,87.500/87.500,1382.92,48.400/48.400,0,1483.95,0,09/21/18,0,125 MAIN STREET 2ND BLOC,
RURAL HOUSING 30YR - 879,Refinance,Submitted to Processing,990,1007817,ANDY AMERICA AMY AMERICA,353535,2.500,1000,.00,500000,,0,.00,70.000/70.710,1396.89,59.100/59.100,0,1590.60,0,09/21/18,0,125 MAIN STREET 2ND BLOC,
FNMA 30YR FXD O/O- 683,Purchase,RESPA Date Not present,990,1007819,ANDY AMERICA AMY AMERICA,350000,2.500,1000,.00,400000,,0,.00,88.000/88.000,1382.92,96.600/96.600,0,1966.25,0,09/21/18,0,125 MAIN STREET 2ND BLOC,
RURAL HOUSING 30YR - 879,Refinance,RESPA Date Not present,990,1007820,ANDY AMERICA AMY AMERICA,350000,2.500,1000,.00,500000,,0,.00,70.000/70.000,1382.92,48.400/48.400,0,1483.95,0,09/21/18,0,125 MAIN STREET 2ND BLOC,
FNMA 30YR FXD O/O- 683,Purchase,Submitted to Processing,990,1007824,ANDY AMERICA AMY AMERICA,350000,2.500,1000,.00,400000,,0,.00,88.000/88.000,1382.92,5.800/5.800,0,2057.91,0,09/21/18,0,125 MAIN STREET 2ND BLOC,
FNMA 30YR FXD O/O- 683,Purchase,Submitted to Underwriting - Full,990,1007826,ANDY AMERICA AMY AMERICA,350000,2.500,1000,.00,400000,,0,.00,88.000/88.000,1382.92,5.800/5.800,0,2057.91,0,09/21/18,0,125 MAIN STREET 2ND BLOC,
FNMA 30YR FXD O/O- 683,Purchase,RESPA Date present,990,1007830,ANDY AMERICA AMY AMERICA,350000,2.500,1000,.00,400000,,0,.00,88.000/88.000,1382.92,96.600/96.600,0,1966.25,0,09/21/18,0,125 MAIN STREET 2ND BLOC,
FNMA 30YR FXD O/O- 683,Purchase,UW Approved - Full,990,1007832,ANDY AMERICA AMY AMERICA,350000,2.500,1000,.00,400000,,0,.00,88.000/88.000,1382.92,5.800/5.800,0,2057.91,650,09/21/18,0,125 MAIN STREET 2ND BLOC,
RURAL HOUSING 30YR - 879,Refinance,UW Approved - Full,990,1007838,ANDY AMERICA AMY AMERICA,353535,2.500,1000,.00,500000,,0,.00,70.000/70.710,1396.89,59.100/59.100,0,1590.60,650,09/21/18,0,125 MAIN STREET 2ND BLOC,
