Loan Program,Purpose of Loan,Status,Branch Code,Application Id,Borrower Name,Loan Amount,Interest Rate,Total Income,Cash Available,Estimated Value,Lock Exp,Monthly Liab,Cash Req'd to Close,LTV/CLTV,P&I Payments,Ratios,Mos Reserves,PITI,Bwr Mid-FICO,Closing Date,Co-Bwr Mid-FICO,Street Address,
VA FIXED 30YR- 41,Refinance,UW Approved - Full,990,1009882,ANDY AMERICA,361550,2.500,1000,.00,500000,,0,.00,70.000/70.000,1428.56,53.000/53.000,0,1530.22,0,10/13/18,0,125 MAIN STREET 2ND BLOC,
VA FIXED 30YR- 41,Purchase,UW Approved - Full,990,1009884,AMERICA ANDY,354375,2.500,1000,.00,400000,,0,.00,87.500/87.500,1400.21,50.200/50.200,0,1501.87,0,10/13/18,0,125 MAIN STREET 2ND BLOC,
FNMA 30YR FXD O/O- 683,Purchase,UW Approved - Full,990,1009889,AMERICA ANDY,350000,2.500,1000,.00,400000,,0,.00,88.000/88.000,1382.92,6.800/6.800,0,2067.91,0,10/13/18,0,125 MAIN STREET 2ND BLOC,
FNMA 30YR FXD O/O- 683,Refinance,UW Approved - Full,990,1009893,ANDY AMERICA,350000,2.500,1000,.00,500000,,0,.00,70.000/70.000,1382.92,48.500/48.500,0,1484.58,0,10/13/18,0,125 MAIN STREET 2ND BLOC,
FNMA 30YR FXD O/O- 683,Construction to Perm,UW Approved - Full,990,1009897,AMERICA ANDY,350000,2.500,1000,.00,400000,,0,.00,88.000/88.000,1382.92,6.800/6.800,0,2067.91,0,10/13/18,0,125 MAIN STREET 2ND BLOC,
FHA 203(B) 30YR- 33,Refinance,Submitted to Underwriting - Full,990,1009898,ANDY AMERICA,356125,2.500,1000,.00,500000,,0,.00,70.000/70.000,1407.12,74.000/74.000,0,1739.70,0,10/13/18,0,125 MAIN STREET 2ND BLOC,
RURAL HOUSING 30YR STREAMLINE W/O APPSAL - 2159,Streamline Refi,Submitted to Underwriting - Full,990,1009899,ANDY AMERICA,353535,2.500,1000,.00,500000,,0,.00,70.710/70.710,1396.89,60.100/60.100,0,1600.60,0,10/13/18,0,125 MAIN STREET 2ND BLOC,
FNMA 30YR FXD O/O- 683,Refinance,Submitted to Underwriting - Full,990,1009900,ANDY AMERICA,350000,2.500,1000,.00,500000,,0,.00,70.000/70.000,1382.92,48.500/48.500,0,1484.58,0,10/13/18,0,125 MAIN STREET 2ND BLOC,
FHA 203(B) 30YR- 33,Purchase,RESPA Date Not present,990,1009901,AMERICA ANDY,356125,2.500,1000,.00,400000,,0,.00,87.500/87.500,1407.12,64.800/64.800,0,1648.04,0,10/13/18,0,125 MAIN STREET 2ND BLOC,
RURAL HOUSING 30YR - 879,Refinance,RESPA Date Not present,990,1009902,HOUSE WANNA,calculating,calculating,calculating,.00,500000,,0,.00,70.000/70.000,1382.92,49.400/49.400,0,1493.95,0,10/13/18,0,125 MAIN STREET 2ND BLOC,
FNMA 30YR FXD O/O- 683,Purchase,UW Approved - Full,990,1009903,AMERICA ANDY,350000,2.500,1000,.00,400000,,0,.00,88.000/88.000,1382.92,6.800/6.800,0,2067.91,0,10/13/18,0,125 MAIN STREET 2ND BLOC,
FNMA 30YR FXD O/O- 683,Construction to Perm,UW Approved - Full,990,1009904,AMERICA ANDY,350000,2.500,1000,.00,400000,,0,.00,88.000/88.000,1382.92,6.800/6.800,0,2067.91,0,10/13/18,0,125 MAIN STREET 2ND BLOC,
FNMA 30YR FXD O/O- 683,Refinance,UW Approved - Full,990,1009905,ANDY AMERICA,350000,2.500,1000,.00,500000,,0,.00,70.000/70.000,1382.92,48.500/48.500,0,1484.58,0,10/13/18,0,125 MAIN STREET 2ND BLOC,
FHA 203(B) 30YR- 33,Purchase,RESPA Date present,990,1009906,AMERICA ANDY,356125,2.500,1000,.00,400000,,0,.00,87.500/87.500,1407.12,64.800/64.800,0,1648.04,0,10/13/18,0,125 MAIN STREET 2ND BLOC,
FHA 203(B) 30YR- 33,Refinance,RESPA Date present,990,1009907,ANDY AMERICA,356125,2.500,1000,.00,500000,,0,.00,70.000/70.000,1407.12,64.800/64.800,0,1648.04,0,10/13/18,0,125 MAIN STREET 2ND BLOC,
FHA 203(B) 30YR- 33,Construction to Perm,UW Approved - Full,990,1009908,AMERICA ANDY,356125,2.500,1000,.00,400000,,0,.00,87.500/87.500,1407.12,74.000/74.000,0,1739.70,0,10/13/18,0,125 MAIN STREET 2ND BLOC,
VA FIXED 30YR- 41,Purchase,RESPA Date Not present,990,1009909,AMERICA ANDY,354375,2.500,1000,.00,400000,,0,.00,87.500/87.500,1400.21,41.000/41.000,0,1410.21,0,10/13/18,0,125 MAIN STREET 2ND BLOC,
VA FIXED 30YR- 41,Purchase,UW Approved - Full,990,1009911,AMERICA ANDY,354375,2.500,1000,.00,400000,,0,.00,87.500/87.500,1400.21,50.200/50.200,0,1501.87,0,10/13/18,0,125 MAIN STREET 2ND BLOC,
VA FIXED 30YR- 41,Refinance,UW Approved - Full,990,1009912,ANDY AMERICA,361550,2.500,1000,.00,500000,,0,.00,70.000/70.000,1428.56,53.000/53.000,0,1530.22,0,10/13/18,0,125 MAIN STREET 2ND BLOC,
FNMA 30YR FXD O/O- 683,Refinance,RESPA Date Not present,990,1009913,ANDY AMERICA,350000,2.500,1000,.00,500000,,0,.00,70.000/70.000,1382.92,39.300/39.300,0,1392.92,0,10/13/18,0,125 MAIN STREET 2ND BLOC,
VA FIXED 30YR- 41,Construction to Perm,Submitted to Processing,990,1009914,AMERICA ANDY,354375,2.500,1000,.00,400000,,0,.00,87.500/87.500,1400.21,50.200/50.200,0,1501.87,0,10/13/18,0,125 MAIN STREET 2ND BLOC,
FHA 203(B) 30YR- 33,Construction to Perm,Submitted to Processing,990,1009915,AMERICA ANDY,356125,2.500,1000,.00,400000,,0,.00,87.500/87.500,1407.12,74.000/74.000,0,1739.70,0,10/13/18,0,125 MAIN STREET 2ND BLOC,
GOV'T PREF'D-FHA 15YR STREAMLINE (203B)- 2042,Streamline Refi,RESPA Date Not present,990,1009916,ANDY AMERICA,350000,2.500,1000,.00,500000,,0,.00,70.000/70.000,2333.76,34.400/34.400,0,2343.76,0,10/13/18,0,125 MAIN STREET 2ND BLOC,
VA FIXED 30YR- 41,Purchase,RESPA Date present,990,1009917,AMERICA ANDY,354375,2.500,1000,.00,400000,,0,.00,87.500/87.500,1400.21,41.000/41.000,0,1410.21,0,10/13/18,0,125 MAIN STREET 2ND BLOC,
RURAL HOUSING 30YR - 879,Refinance,Submitted to Processing,990,1009918,HOUSE WANNA,353535,2.500,1000,.00,500000,,0,.00,70.000/70.710,1396.89,60.100/60.100,0,1600.60,0,10/13/18,0,125 MAIN STREET 2ND BLOC,
FHA 203(B) 30YR- 33,Purchase,Submitted to Processing,990,1009919,AMERICA ANDY,356125,2.500,1000,.00,400000,,0,.00,87.500/87.500,1407.12,74.000/74.000,0,1739.70,0,10/13/18,0,125 MAIN STREET 2ND BLOC,
GOV'T PREF'D-FHA 15YR STREAMLINE (203B)- 2042,Streamline Refi,RESPA Date present,990,1009920,ANDY AMERICA,350000,2.500,1000,.00,500000,,0,.00,70.000/70.000,2333.76,34.400/34.400,0,2343.76,0,10/13/18,0,125 MAIN STREET 2ND BLOC,
RURAL HOUSING 30YR - 879,Refinance,UW Approved - Full,990,1009921,HOUSE WANNA,353535,2.500,1000,.00,500000,,0,.00,70.000/70.710,1396.89,60.100/60.100,0,1600.60,0,10/13/18,0,125 MAIN STREET 2ND BLOC,
FHA 203(B) 30YR- 33,Purchase,Submitted to Underwriting - Full,990,1009922,AMERICA ANDY,356125,2.500,1000,.00,400000,,0,.00,87.500/87.500,1407.12,74.000/74.000,0,1739.70,0,10/13/18,0,125 MAIN STREET 2ND BLOC,
VA FIXED 30YR- 41,Construction to Perm,Submitted to Underwriting - Full,990,1009923,AMERICA ANDY,354375,2.500,1000,.00,400000,,0,.00,87.500/87.500,1400.21,50.200/50.200,0,1501.87,0,10/13/18,0,125 MAIN STREET 2ND BLOC,
RURAL HOUSING 30YR STREAMLINE W/O APPSAL - 2159,Streamline Refi,Submitted to Underwriting - Full,990,1009924,ANDY AMERICA,353535,2.500,1000,.00,500000,,0,.00,70.710/70.710,1396.89,60.100/60.100,0,1600.60,0,10/13/18,0,125 MAIN STREET 2ND BLOC,
RURAL HOUSING 30YR STREAMLINE W/O APPSAL - 2159,Streamline Refi,Submitted to Processing,990,1009925,ANDY AMERICA,353535,2.500,1000,.00,500000,,0,.00,70.710/70.710,1396.89,60.100/60.100,0,1600.60,0,10/13/18,0,125 MAIN STREET 2ND BLOC,
VA FIXED 30YR- 41,Construction to Perm,RESPA Date present,990,1009926,AMERICA ANDY,354375,2.500,1000,.00,400000,,0,.00,87.500/87.500,1400.21,41.000/41.000,0,1410.21,0,10/13/18,0,125 MAIN STREET 2ND BLOC,
RURAL HOUSING 30YR STREAMLINE W/O APPSAL - 2159,Streamline Refi,RESPA Date Not present,990,1009927,ANDY AMERICA,350000,2.500,1000,.00,500000,,0,.00,70.000/70.000,1382.92,49.400/49.400,0,1493.95,0,10/13/18,0,125 MAIN STREET 2ND BLOC,
FNMA 30YR FXD O/O- 683,Construction to Perm,Submitted to Underwriting - Full,990,1009928,AMERICA ANDY,350000,2.500,1000,.00,400000,,0,.00,88.000/88.000,1382.92,6.800/6.800,0,2067.91,0,10/13/18,0,125 MAIN STREET 2ND BLOC,
RURAL HOUSING 30YR - 879,Purchase,Submitted to Processing,990,1009929,AMERICA ANDY,353535,2.500,1000,.00,400000,,0,.00,87.500/88.390,1396.89,60.100/60.100,0,1600.60,0,10/13/18,0,125 MAIN STREET 2ND BLOC,
RURAL HOUSING 30YR - 879,Refinance,Submitted to Underwriting - Full,990,1009930,HOUSE WANNA,353535,2.500,1000,.00,500000,,0,.00,70.000/70.710,1396.89,60.100/60.100,0,1600.60,0,10/13/18,0,125 MAIN STREET 2ND BLOC,
RURAL HOUSING 30YR STREAMLINE W/O APPSAL - 2159,Streamline Refi,Submitted to Underwriting - Full,990,1009931,ANDY AMERICA,353535,2.500,1000,.00,500000,,0,.00,70.710/70.710,1396.89,60.100/60.100,0,1600.60,0,10/13/18,0,125 MAIN STREET 2ND BLOC,
RURAL HOUSING 30YR - 879,Refinance,Submitted to Underwriting - Credit,990,1009932,HOUSE WANNA,353535,2.500,1000,.00,500000,,0,.00,70.000/70.710,1396.89,60.100/60.100,0,1600.60,0,10/13/18,0,125 MAIN STREET 2ND BLOC,
RURAL HOUSING 30YR STREAMLINE W/O APPSAL - 2159,Streamline Refi,Submitted to Underwriting - Full,990,1009933,ANDY AMERICA,353535,2.500,1000,.00,500000,,0,.00,70.710/70.710,1396.89,60.100/60.100,0,1600.60,0,10/13/18,0,125 MAIN STREET 2ND BLOC,
VA FIXED 30YR- 41,Construction to Perm,Submitted to Underwriting - Full,990,1009934,AMERICA ANDY,354375,2.500,1000,.00,400000,,0,.00,87.500/87.500,1400.21,50.200/50.200,0,1501.87,0,10/13/18,0,125 MAIN STREET 2ND BLOC,
FNMA 30YR FXD O/O- 683,Refinance,UW Approved - Credit,990,1009935,ANDY AMERICA,350000,2.500,1000,.00,500000,,0,.00,70.000/70.000,1382.92,48.500/48.500,0,1484.58,0,10/13/18,0,125 MAIN STREET 2ND BLOC,
GOV'T PREF'D-FHA 15YR STREAMLINE (203B)- 2042,Streamline Refi,Submitted to Processing,990,1009936,ANDY AMERICA,356125,2.500,1000,.00,500000,,0,.00,70.000/70.000,2374.60,60.400/60.400,0,2604.18,0,10/13/18,0,125 MAIN STREET 2ND BLOC,
VA FIXED 30YR- 41,Purchase,Submitted to Underwriting - Full,990,1009937,AMERICA ANDY,354375,2.500,1000,.00,400000,,0,.00,87.500/87.500,1400.21,50.200/50.200,0,1501.87,0,10/13/18,0,125 MAIN STREET 2ND BLOC,
RURAL HOUSING 30YR - 879,Purchase,UW Approved - Full,990,1009938,AMERICA ANDY,353535,2.500,1000,.00,400000,,0,.00,87.500/88.390,1396.89,60.100/60.100,0,1600.60,0,10/13/18,0,125 MAIN STREET 2ND BLOC,
VA FIXED 30YR- 41,Refinance,UW Approved - Credit,990,1009939,ANDY AMERICA,361550,2.500,1000,.00,500000,,0,.00,70.000/70.000,1428.56,53.000/53.000,0,1530.22,0,10/13/18,0,125 MAIN STREET 2ND BLOC,
GOV'T PREF'D-FHA 15YR STREAMLINE (203B)- 2042,Streamline Refi,UW Approved - Full,990,1009940,ANDY AMERICA,356125,2.500,1000,.00,500000,,0,.00,70.000/70.000,2374.60,60.400/60.400,0,2604.18,0,10/13/18,0,125 MAIN STREET 2ND BLOC,
RURAL HOUSING 30YR - 879,Purchase,UW Approved - Full,990,1009941,AMERICA ANDY,353535,2.500,1000,.00,400000,,0,.00,87.500/88.390,1396.89,60.100/60.100,0,1600.60,0,10/13/18,0,125 MAIN STREET 2ND BLOC,
FNMA 30YR FXD O/O- 683,Refinance,RESPA Date present,990,1009942,ANDY AMERICA,350000,2.500,1000,.00,500000,,0,.00,70.000/70.000,1382.92,39.300/39.300,0,1392.92,0,10/13/18,0,125 MAIN STREET 2ND BLOC,
FHA 203(B) 30YR- 33,Refinance,UW Approved - Credit,990,1009943,ANDY AMERICA,356125,2.500,1000,.00,500000,,0,.00,70.000/70.000,1407.12,74.000/74.000,0,1739.70,0,10/13/18,0,125 MAIN STREET 2ND BLOC,
FNMA 30YR FXD O/O- 683,Purchase,RESPA Date Not present,990,1009944,AMERICA ANDY,350000,2.500,1000,.00,400000,,0,.00,88.000/88.000,1382.92,97.600/97.600,0,1976.25,0,10/13/18,0,125 MAIN STREET 2ND BLOC,
VA FIXED 30YR- 41,Purchase,UW Approved - Full,990,1009945,AMERICA ANDY,354375,2.500,1000,.00,400000,,0,.00,87.500/87.500,1400.21,50.200/50.200,0,1501.87,0,10/13/18,0,125 MAIN STREET 2ND BLOC,
VA FIXED 30YR- 41,Construction to Perm,RESPA Date Not present,990,1009946,AMERICA ANDY,354375,2.500,1000,.00,400000,,0,.00,87.500/87.500,1400.21,41.000/41.000,0,1410.21,0,10/13/18,0,125 MAIN STREET 2ND BLOC,
GOV'T PREF'D-FHA 15YR STREAMLINE (203B)- 2042,Streamline Refi,Submitted to Underwriting - Credit,990,1009947,ANDY AMERICA,356125,2.500,1000,.00,500000,,0,.00,70.000/70.000,2374.60,60.400/60.400,0,2604.18,0,10/13/18,0,125 MAIN STREET 2ND BLOC,
FHA 203(B) 30YR- 33,Refinance,RESPA Date Not present,990,1009948,ANDY AMERICA,356125,2.500,1000,.00,500000,,0,.00,70.000/70.000,1407.12,64.800/64.800,0,1648.04,0,10/13/18,0,125 MAIN STREET 2ND BLOC,
RURAL HOUSING 30YR - 879,Purchase,Submitted to Underwriting - Full,990,1009949,AMERICA ANDY,353535,2.500,1000,.00,400000,,0,.00,87.500/88.390,1396.89,60.100/60.100,0,1600.60,0,10/13/18,0,125 MAIN STREET 2ND BLOC,
VA FIXED 30YR- 41,Refinance,Submitted to Processing,990,1009950,ANDY AMERICA,361550,2.500,1000,.00,500000,,0,.00,70.000/70.000,1428.56,53.000/53.000,0,1530.22,0,10/13/18,0,125 MAIN STREET 2ND BLOC,
RURAL HOUSING 30YR - 879,Purchase,RESPA Date present,990,1009951,AMERICA ANDY,353535,2.500,1000,.00,400000,,0,.00,87.500/88.390,1396.89,50.900/50.900,0,1508.94,0,10/13/18,0,125 MAIN STREET 2ND BLOC,
FNMA 30YR FXD O/O- 683,Purchase,UW Approved - Credit,990,1009952,AMERICA ANDY,350000,2.500,1000,.00,400000,,0,.00,88.000/88.000,1382.92,6.800/6.800,0,2067.91,0,10/13/18,0,125 MAIN STREET 2ND BLOC,
FNMA 30YR FXD O/O- 683,Construction to Perm,RESPA Date present,990,1009953,AMERICA ANDY,350000,2.500,1000,.00,400000,,0,.00,88.000/88.000,1382.92,97.600/97.600,0,1976.25,0,10/13/18,0,125 MAIN STREET 2ND BLOC,
VA FIXED 30YR- 41,Construction to Perm,UW Approved - Full,990,1009954,AMERICA ANDY,354375,2.500,1000,.00,400000,,0,.00,87.500/87.500,1400.21,50.200/50.200,0,1501.87,0,10/13/18,0,125 MAIN STREET 2ND BLOC,
FNMA 30YR FXD O/O- 683,Purchase,Submitted to Processing,990,1009955,AMERICA ANDY,350000,2.500,1000,.00,400000,,0,.00,88.000/88.000,1382.92,6.800/6.800,0,2067.91,0,10/13/18,0,125 MAIN STREET 2ND BLOC,
RURAL HOUSING 30YR - 879,Purchase,Submitted to Underwriting - Full,990,1009958,AMERICA ANDY,353535,2.500,1000,.00,400000,,0,.00,87.500/88.390,1396.89,60.100/60.100,0,1600.60,0,10/13/18,0,125 MAIN STREET 2ND BLOC,
FHA 203(B) 30YR- 33,Construction to Perm,Submitted to Underwriting - Full,990,1009959,AMERICA ANDY,356125,2.500,1000,.00,400000,,0,.00,87.500/87.500,1407.12,74.000/74.000,0,1739.70,0,10/13/18,0,125 MAIN STREET 2ND BLOC,
VA FIXED 30YR- 41,Purchase,Submitted to Underwriting - Full,990,1009960,AMERICA ANDY,354375,2.500,1000,.00,400000,,0,.00,87.500/87.500,1400.21,50.200/50.200,0,1501.87,0,10/13/18,0,125 MAIN STREET 2ND BLOC,
FHA 203(B) 30YR- 33,Construction to Perm,RESPA Date present,990,1009961,AMERICA ANDY,calculating,calculating,1000,.00,400000,,0,.00,87.500/87.500,1407.12,64.800/64.800,0,1648.04,0,10/13/18,0,125 MAIN STREET 2ND BLOC,
FNMA 30YR FXD O/O- 683,Construction to Perm,RESPA Date Not present,990,1009962,AMERICA ANDY,350000,2.500,1000,.00,400000,,0,.00,88.000/88.000,1382.92,97.600/97.600,0,1976.25,0,10/13/18,0,125 MAIN STREET 2ND BLOC,
FHA 203(B) 30YR- 33,Purchase,Submitted to Underwriting - Full,990,1009963,AMERICA ANDY,356125,2.500,1000,.00,400000,,0,.00,87.500/87.500,1407.12,74.000/74.000,0,1739.70,0,10/13/18,0,125 MAIN STREET 2ND BLOC,
FNMA 30YR FXD O/O- 683,Construction to Perm,Submitted to Processing,990,1009964,AMERICA ANDY,350000,2.500,1000,.00,400000,,0,.00,88.000/88.000,1382.92,6.800/6.800,0,2067.91,0,10/13/18,0,125 MAIN STREET 2ND BLOC,
VA FIXED 30YR- 41,Refinance,RESPA Date Not present,990,1009965,ANDY AMERICA,calculating,calculating,calculating,.00,500000,,0,.00,70.000/70.000,1428.56,43.900/43.900,0,1438.56,0,10/13/18,0,125 MAIN STREET 2ND BLOC,
FHA 203(B) 30YR- 33,Refinance,Submitted to Processing,990,1009966,ANDY AMERICA,356125,2.500,1000,.00,500000,,0,.00,70.000/70.000,1407.12,74.000/74.000,0,1739.70,0,10/13/18,0,125 MAIN STREET 2ND BLOC,
GOV'T PREF'D-FHA 15YR STREAMLINE (203B)- 2042,Streamline Refi,UW Approved - Credit,990,1009967,ANDY AMERICA,356125,2.500,1000,.00,500000,,0,.00,70.000/70.000,2374.60,60.400/60.400,0,2604.18,0,10/13/18,0,125 MAIN STREET 2ND BLOC,
FHA 203(B) 30YR- 33,Construction to Perm,Submitted to Underwriting - Full,990,1009968,AMERICA ANDY,356125,2.500,1000,.00,400000,,0,.00,87.500/87.500,1407.12,74.000/74.000,0,1739.70,0,10/13/18,0,125 MAIN STREET 2ND BLOC,
FNMA 30YR FXD O/O- 683,Purchase,RESPA Date present,990,1009969,AMERICA ANDY,350000,2.500,1000,.00,400000,,0,.00,88.000/88.000,1382.92,97.600/97.600,0,1976.25,0,10/13/18,0,125 MAIN STREET 2ND BLOC,
FNMA 30YR FXD O/O- 683,Construction to Perm,Submitted to Underwriting - Full,990,1009970,AMERICA ANDY,350000,2.500,1000,.00,400000,,0,.00,88.000/88.000,1382.92,6.800/6.800,0,2067.91,0,10/13/18,0,125 MAIN STREET 2ND BLOC,
FHA 203(B) 30YR- 33,Construction to Perm,UW Approved - Full,990,1009971,AMERICA ANDY,356125,2.500,1000,.00,400000,,0,.00,87.500/87.500,1407.12,74.000/74.000,0,1739.70,0,10/13/18,0,125 MAIN STREET 2ND BLOC,
GOV'T PREF'D-FHA 15YR STREAMLINE (203B)- 2042,Streamline Refi,Submitted to Underwriting - Full,990,1009972,ANDY AMERICA,356125,2.500,1000,.00,500000,,0,.00,70.000/70.000,2374.60,60.400/60.400,0,2604.18,0,10/13/18,0,125 MAIN STREET 2ND BLOC,
VA FIXED 30YR- 41,Purchase,Submitted to Processing,990,1009973,AMERICA ANDY,354375,2.500,1000,.00,400000,,0,.00,87.500/87.500,1400.21,50.200/50.200,0,1501.87,0,10/13/18,0,125 MAIN STREET 2ND BLOC,
FHA 203(B) 30YR- 33,Purchase,UW Approved - Full,990,1009974,AMERICA ANDY,356125,2.500,1000,.00,400000,,0,.00,87.500/87.500,1407.12,74.000/74.000,0,1739.70,0,10/13/18,0,125 MAIN STREET 2ND BLOC,
FHA 203(B) 30YR- 33,Refinance,Submitted to Underwriting - Credit,990,1009977,ANDY AMERICA,356125,2.500,1000,.00,500000,,0,.00,70.000/70.000,1407.12,74.000/74.000,0,1739.70,0,10/13/18,0,125 MAIN STREET 2ND BLOC,
RURAL HOUSING 30YR - 879,Refinance,RESPA Date present,990,1009978,HOUSE WANNA,350000,2.500,1000,.00,500000,,0,.00,70.000/70.000,1382.92,49.400/49.400,0,1493.95,0,10/13/18,0,125 MAIN STREET 2ND BLOC,
RURAL HOUSING 30YR - 879,Refinance,UW Approved - Full,990,1009980,HOUSE WANNA,353535,2.500,1000,.00,500000,,0,.00,70.000/70.710,1396.89,60.100/60.100,0,1600.60,0,10/13/18,0,125 MAIN STREET 2ND BLOC,
RURAL HOUSING 30YR - 879,Purchase,RESPA Date Not present,990,1009981,AMERICA ANDY,353535,2.500,1000,.00,400000,,0,.00,87.500/88.390,1396.89,50.900/50.900,0,1508.94,0,10/13/18,0,125 MAIN STREET 2ND BLOC,
VA FIXED 30YR- 41,Construction to Perm,UW Approved - Full,990,1009982,AMERICA ANDY,354375,2.500,1000,.00,400000,,0,.00,87.500/87.500,1400.21,50.200/50.200,0,1501.87,0,10/13/18,0,125 MAIN STREET 2ND BLOC,
FNMA 30YR FXD O/O- 683,Refinance,Submitted to Processing,990,1009983,ANDY AMERICA,350000,2.500,1000,.00,500000,,0,.00,70.000/70.000,1382.92,48.500/48.500,0,1484.58,0,10/13/18,0,125 MAIN STREET 2ND BLOC,
FHA 203(B) 30YR- 33,Refinance,UW Approved - Full,990,1009984,ANDY AMERICA,356125,2.500,1000,.00,500000,,0,.00,70.000/70.000,1407.12,74.000/74.000,0,1739.70,0,10/13/18,0,125 MAIN STREET 2ND BLOC,
FNMA 30YR FXD O/O- 683,Refinance,Submitted to Underwriting - Credit,990,1009985,ANDY AMERICA,350000,2.500,1000,.00,500000,,0,.00,70.000/70.000,1382.92,48.500/48.500,0,1484.58,0,10/13/18,0,125 MAIN STREET 2ND BLOC,
FNMA 30YR FXD O/O- 683,Construction to Perm,UW Approved - Full,990,1009986,AMERICA ANDY,350000,2.500,1000,.00,400000,,0,.00,88.000/88.000,1382.92,6.800/6.800,0,2067.91,0,10/13/18,0,125 MAIN STREET 2ND BLOC,
RURAL HOUSING 30YR STREAMLINE W/O APPSAL - 2159,Streamline Refi,RESPA Date present,990,1009987,ANDY AMERICA,350000,2.500,1000,.00,500000,,0,.00,70.000/70.000,1382.92,49.400/49.400,0,1493.95,0,10/13/18,0,125 MAIN STREET 2ND BLOC,
VA FIXED 30YR- 41,Refinance,RESPA Date present,990,1009988,ANDY AMERICA,361550,2.500,1000,.00,500000,,0,.00,70.000/70.000,1428.56,43.900/43.900,0,1438.56,0,10/13/18,0,125 MAIN STREET 2ND BLOC,
FHA 203(B) 30YR- 33,Construction to Perm,RESPA Date Not present,990,1009989,AMERICA ANDY,356125,2.500,1000,.00,400000,,0,.00,87.500/87.500,1407.12,64.800/64.800,0,1648.04,0,10/13/18,0,125 MAIN STREET 2ND BLOC,
FHA 203(B) 30YR- 33,Purchase,UW Approved - Full,990,1009990,AMERICA ANDY,356125,2.500,1000,.00,400000,,0,.00,87.500/87.500,1407.12,74.000/74.000,0,1739.70,0,10/13/18,0,125 MAIN STREET 2ND BLOC,
