Loan Program,Purpose of Loan,Status,BranchCode,ApplicationId,BorrowerName,Loan Amount,Interest Rate,Total Income,Cash Available,Estimated Value,Lock Exp,Monthly Liab,Cash Req'd to Close,LTV/CLTV,P&I Payments,Ratios,Mos Reserves,PITI,Bwr Mid-FICO,Closing Date,Co-Bwr Mid-FICO,Street Address,
FHA 203(B) 30YR- 33,Refinance,Submitted to Processing,990,1009588,ANDY AMERICA,calculating,calculating,calculating,calculating,calculating,calculating,0,.00,70.000/70.000,1407.12,73.000/73.000,0,1729.70,0,10/12/18,0,125 MAIN STREET 2ND BLOC,
RURAL HOUSING 30YR - 879,Purchase,Submitted to Processing,990,1009590,AMERICA ANDY,calculating,2.500,1000,.00,400000,,0,.00,87.500/88.390,1396.89,59.100/59.100,0,1590.60,0,10/12/18,0,125 MAIN STREET 2ND BLOC,
VA FIXED 30YR- 41,Refinance,RESPA Date present,990,1009591,ANDY AMERICA,calculating,calculating,calculating,calculating,500000,,0,.00,70.000/70.000,1428.56,42.900/42.900,0,1428.56,0,10/12/18,0,125 MAIN STREET 2ND BLOC,
RURAL HOUSING 30YR - 879,Purchase,RESPA Date Not present,990,1009593,AMERICA ANDY,353535,2.500,1000,.00,400000,,0,.00,87.500/88.390,1396.89,49.900/49.900,0,1498.94,0,10/12/18,0,125 MAIN STREET 2ND BLOC,
FNMA 30YR FXD O/O- 683,Construction to Perm,RESPA Date Not present,990,1009597,AMERICA ANDY,calculating,2.500,1000,.00,400000,,0,.00,88.000/88.000,1382.92,96.600/96.600,0,1966.25,0,10/12/18,0,125 MAIN STREET 2ND BLOC,
FNMA 30YR FXD O/O- 683,Purchase,Submitted to Processing,990,1009600,AMERICA ANDY,350000,2.500,1000,.00,400000,,0,.00,88.000/88.000,1382.92,5.800/5.800,0,2057.91,0,10/12/18,0,125 MAIN STREET 2ND BLOC,
RURAL HOUSING 30YR - 879,Purchase,UW Approved - Full,990,1009604,AMERICA ANDY,353535,2.500,1000,.00,400000,,0,.00,87.500/88.390,1396.89,59.100/59.100,0,1590.60,0,10/12/18,0,125 MAIN STREET 2ND BLOC,
RURAL HOUSING 30YR STREAMLINE W/O APPSAL - 2159,Streamline Refi,RESPA Date Not present,990,1009606,ANDY AMERICA,,
VA FIXED 30YR- 41,Purchase,Submitted to Processing,990,1009607,AMERICA ANDY,354375,2.500,1000,.00,400000,,0,.00,87.500/87.500,1400.21,49.200/49.200,0,1491.87,0,10/12/18,0,125 MAIN STREET 2ND BLOC,
RURAL HOUSING 30YR STREAMLINE W/O APPSAL - 2159,Streamline Refi,Submitted to Underwriting - Full,990,1009612,ANDY AMERICA,,353535,2.500,1000,.00,500000,,0,.00,70.710/70.710,1396.89,59.100/59.100,0,1590.60,0,10/12/18,0,125 MAIN STREET 2ND BLOC,
VA FIXED 30YR- 41,Purchase,UW Approved - Full,990,1009615,AMERICA ANDY,354375,2.500,1000,.00,400000,,0,.00,87.500/87.500,1400.21,49.200/49.200,0,1491.87,0,10/12/18,0,125 MAIN STREET 2ND BLOC,
FNMA 30YR FXD O/O- 683,Purchase,RESPA Date present,990,1009621,AMERICA ANDY,350000,2.500,1000,.00,400000,,0,.00,88.000/88.000,1382.92,96.600/96.600,0,1966.25,0,10/12/18,0,125 MAIN STREET 2ND BLOC,
FHA 203(B) 30YRSTREAMLINE NO APPRAISAL - 1989,Streamline Refi,RESPA Date present,990,1009624,ANDY AMERICA,,
RURAL HOUSING 30YR STREAMLINE W/O APPSAL - 2159,Streamline Refi,Submitted to Underwriting - Full,990,1009627,ANDY AMERICA,,353535,2.500,1000,.00,500000,,0,.00,70.710/70.710,1396.89,59.100/59.100,0,1590.60,0,10/12/18,0,125 MAIN STREET 2ND BLOC,
VA FIXED 30YR- 41,Purchase,RESPA Date present,990,1009629,AMERICA ANDY,354375,2.500,1000,.00,400000,,0,.00,87.500/87.500,1400.21,40.000/40.000,0,1400.21,0,10/12/18,0,125 MAIN STREET 2ND BLOC,
FHA 203(B) 30YR- 33,Refinance,RESPA Date present,990,1009631,ANDY AMERICA,356125,2.500,1000,.00,500000,,0,.00,70.000/70.000,1407.12,63.800/63.800,0,1638.04,0,10/12/18,0,125 MAIN STREET 2ND BLOC,
FNMA 30YR FXD O/O- 683,Purchase,UW Approved - Full,990,1009633,AMERICA ANDY,350000,2.500,1000,.00,400000,,0,.00,88.000/88.000,1382.92,5.800/5.800,0,2057.91,0,10/12/18,0,125 MAIN STREET 2ND BLOC,
FHA 203(B) 30YR- 33,Construction to Perm,RESPA Date Not present,990,1009635,AMERICA ANDY,356125,2.500,1000,.00,400000,,0,.00,87.500/87.500,1407.12,63.800/63.800,0,1638.04,0,10/12/18,0,125 MAIN STREET 2ND BLOC,
RURAL HOUSING 30YR - 879,Refinance,RESPA Date Not present,990,1009636,HOUSE WANNA,
VA FIXED 30YR- 41,Refinance,UW Approved - Full,990,1009638,ANDY AMERICA,361550,2.500,1000,.00,500000,,0,.00,70.000/70.000,1428.56,52.000/52.000,0,1520.22,0,10/12/18,0,125 MAIN STREET 2ND BLOC,
RURAL HOUSING 30YR - 879,Refinance,Submitted to Underwriting - Credit,990,1009641,HOUSE WANNA,353535,2.500,1000,.00,500000,,0,.00,70.000/70.710,1396.89,59.100/59.100,0,1590.60,0,10/12/18,0,125 MAIN STREET 2ND BLOC,
FNMA 30YR FXD O/O- 683,Refinance,RESPA Date present,990,1009646,ANDY AMERICA,350000,2.500,1000,.00,500000,,0,.00,70.000/70.000,1382.92,38.300/38.300,0,1382.92,0,10/12/18,0,125 MAIN STREET 2ND BLOC,
FHA 203(B) 30YR- 33,Refinance,UW Approved - Credit,990,1009647,ANDY AMERICA,356125,2.500,1000,.00,500000,,0,.00,70.000/70.000,1407.12,73.000/73.000,0,1729.70,0,10/12/18,0,125 MAIN STREET 2ND BLOC,
FNMA 30YR FXD O/O- 683,Refinance,Submitted to Underwriting - Full,990,1009649,ANDY AMERICA,350000,2.500,1000,.00,500000,,0,.00,70.000/70.000,1382.92,47.500/47.500,0,1474.58,0,10/12/18,0,125 MAIN STREET 2ND BLOC,
VA FIXED 30YR- 41,Refinance,RESPA Date Not present,990,1009654,ANDY AMERICA,361550,2.500,1000,.00,500000,,0,.00,70.000/70.000,1428.56,42.900/42.900,0,1428.56,0,10/12/18,0,125 MAIN STREET 2ND BLOC,
FHA 203(B) 30YR- 33,Purchase,RESPA Date Not present,990,1009656,AMERICA ANDY,calculating,2.500,1000,.00,400000,,0,.00,87.500/87.500,1407.12,63.800/63.800,0,1638.04,0,10/12/18,0,125 MAIN STREET 2ND BLOC,
FNMA 30YR FXD O/O- 683,Construction to Perm,RESPA Date present,990,1009737,AMERICA ANDY,350000,2.500,1000,.00,400000,,0,.00,88.000/88.000,1382.92,96.600/96.600,0,1966.25,0,10/12/18,0,125 MAIN STREET 2ND BLOC,
FNMA 30YR FXD O/O- 683,Construction to Perm,UW Approved - Full,990,1009739,AMERICA ANDY,350000,2.500,1000,.00,400000,,0,.00,88.000/88.000,1382.92,5.800/5.800,0,2057.91,0,10/12/18,0,125 MAIN STREET 2ND BLOC,
VA FIXED 30YR- 41,Construction to Perm,UW Approved - Full,990,1009740,AMERICA ANDY,354375,2.500,1000,.00,400000,,0,.00,87.500/87.500,1400.21,49.200/49.200,0,1491.87,0,10/12/18,0,125 MAIN STREET 2ND BLOC,
FHA 203(B) 30YR- 33,Construction to Perm,UW Approved - Full,990,1009741,AMERICA ANDY,356125,2.500,1000,.00,400000,,0,.00,87.500/87.500,1407.12,73.000/73.000,0,1729.70,0,10/12/18,0,125 MAIN STREET 2ND BLOC,
FHA 203(B) 30YR- 33,Construction to Perm,UW Approved - Full,990,1009742,AMERICA ANDY,356125,2.500,1000,.00,400000,,0,.00,87.500/87.500,1407.12,73.000/73.000,0,1729.70,0,10/12/18,0,125 MAIN STREET 2ND BLOC,
VA FIXED 30YR- 41,Construction to Perm,UW Approved - Full,990,1009743,AMERICA ANDY,354375,2.500,1000,.00,400000,,0,.00,87.500/87.500,1400.21,49.200/49.200,0,1491.87,0,10/12/18,0,125 MAIN STREET 2ND BLOC,
FNMA 30YR FXD O/O- 683,Construction to Perm,UW Approved - Full,990,1009744,AMERICA ANDY,350000,2.500,1000,.00,400000,,0,.00,88.000/88.000,1382.92,5.800/5.800,0,2057.91,0,10/12/18,0,125 MAIN STREET 2ND BLOC,
RURAL HOUSING 30YR - 879,Purchase,Submitted to Underwriting - Full,990,1009750,AMERICA ANDY,353535,2.500,1000,.00,400000,,0,.00,87.500/88.390,1396.89,59.100/59.100,0,1590.60,0,10/12/18,0,125 MAIN STREET 2ND BLOC,
RURAL HOUSING 30YR - 879,Purchase,Submitted to Underwriting - Full,990,1009766,AMERICA ANDY,353535,2.500,1000,.00,400000,,0,.00,87.500/88.390,1396.89,59.100/59.100,0,1590.60,0,10/12/18,0,125 MAIN STREET 2ND BLOC,
FHA 203(B) 30YR- 33,Construction to Perm,Submitted to Underwriting - Full,990,1009768,AMERICA ANDY,356125,2.500,1000,.00,400000,,0,.00,87.500/87.500,1407.12,73.000/73.000,0,1729.70,0,10/12/18,0,125 MAIN STREET 2ND BLOC,
FNMA 30YR FXD O/O- 683,Refinance,Submitted to Underwriting - Full,990,1009769,ANDY AMERICA,350000,2.500,1000,.00,500000,,0,.00,70.000/70.000,1382.92,47.500/47.500,0,1474.58,0,10/12/18,0,125 MAIN STREET 2ND BLOC,
FHA 203(B) 30YR- 33,Refinance,Submitted to Underwriting - Full,990,1009771,ANDY AMERICA,356125,2.500,1000,.00,500000,,0,.00,70.000/70.000,1407.12,73.000/73.000,0,1729.70,0,10/12/18,0,125 MAIN STREET 2ND BLOC,
VA FIXED 30YR- 41,Refinance,Submitted to Underwriting - Full,990,1009773,ANDY AMERICA,361550,2.500,1000,.00,500000,,0,.00,70.000/70.000,1428.56,52.000/52.000,0,1520.22,0,10/12/18,0,125 MAIN STREET 2ND BLOC,
FNMA 30YR FXD O/O- 683,Purchase,RESPA Date Not present,990,1009793,AMERICA ANDY,350000,2.500,1000,.00,400000,,0,.00,88.000/88.000,1382.92,97.600/97.600,0,1976.25,0,10/12/18,0,125 MAIN STREET 2ND BLOC,
FNMA 30YR FXD O/O- 683,Purchase,RESPA Date present,990,1009794,AMERICA ANDY,350000,2.500,1000,.00,400000,,0,.00,88.000/88.000,1382.92,97.600/97.600,0,1976.25,0,10/12/18,0,125 MAIN STREET 2ND BLOC,
FNMA 30YR FXD O/O- 683,Purchase,Submitted to Processing,990,1009795,AMERICA ANDY,350000,2.500,1000,.00,400000,,0,.00,88.000/88.000,1382.92,6.800/6.800,0,2067.91,0,10/12/18,0,125 MAIN STREET 2ND BLOC,
FNMA 30YR FXD O/O- 683,Purchase,UW Approved - Full,990,1009799,AMERICA ANDY,350000,2.500,1000,.00,400000,,0,.00,88.000/88.000,1382.92,6.800/6.800,0,2067.91,0,10/12/18,0,125 MAIN STREET 2ND BLOC,
VA FIXED 30YR- 41,Refinance,Submitted to Underwriting - Full,990,1009809,ANDY AMERICA,361550,2.500,1000,.00,500000,,0,.00,70.000/70.000,1428.56,53.000/53.000,0,1530.22,0,10/12/18,0,125 MAIN STREET 2ND BLOC,
VA FIXED 30YR- 41,Construction to Perm,Submitted to Underwriting - Full,990,1009820,AMERICA ANDY,354375,2.500,1000,.00,400000,,0,.00,87.500/87.500,1400.21,50.200/50.200,0,1501.87,0,10/12/18,0,125 MAIN STREET 2ND BLOC,
FHA 203(B) 30YR- 33,Purchase,RESPA Date Not present,990,1009829,AMERICA ANDY,356125,2.500,1000,.00,400000,,0,.00,87.500/87.500,1407.12,64.800/64.800,0,1648.04,0,10/12/18,0,125 MAIN STREET 2ND BLOC,
FHA 203(B) 30YR- 33,Purchase,UW Approved - Full,990,1009830,AMERICA ANDY,356125,2.500,1000,.00,400000,,0,.00,87.500/87.500,1407.12,74.000/74.000,0,1739.70,0,10/12/18,0,125 MAIN STREET 2ND BLOC,
FHA 203(B) 30YR- 33,Purchase,Submitted to Processing,990,1009831,AMERICA ANDY,356125,2.500,1000,.00,400000,,0,.00,87.500/87.500,1407.12,74.000/74.000,0,1739.70,0,10/12/18,0,125 MAIN STREET 2ND BLOC,
FHA 203(B) 30YR- 33,Purchase,UW Approved - Full,990,1009832,AMERICA ANDY,356125,2.500,1000,.00,400000,,0,.00,87.500/87.500,1407.12,74.000/74.000,0,1739.70,0,10/12/18,0,125 MAIN STREET 2ND BLOC,
FHA 203(B) 30YR- 33,Purchase,Submitted to Underwriting - Full,990,1009833,AMERICA ANDY,356125,2.500,1000,.00,400000,,0,.00,87.500/87.500,1407.12,74.000/74.000,0,1739.70,0,10/12/18,0,125 MAIN STREET 2ND BLOC,
FHA 203(B) 30YR- 33,Purchase,Submitted to Underwriting - Full,990,1009836,AMERICA ANDY,356125,2.500,1000,.00,400000,,0,.00,87.500/87.500,1407.12,74.000/74.000,0,1739.70,0,10/12/18,0,125 MAIN STREET 2ND BLOC,
FHA 203(B) 30YR- 33,Purchase,RESPA Date present,990,1009837,AMERICA ANDY,calculating,calculating,calculating,.00,400000,,0,.00,87.500/87.500,1407.12,64.800/64.800,0,1648.04,0,10/12/18,0,125 MAIN STREET 2ND BLOC,
VA FIXED 30YR- 41,Refinance,RESPA Date Not present,990,1009838,ANDY AMERICA,361550,2.500,1000,.00,500000,,0,.00,70.000/70.000,1428.56,43.900/43.900,0,1438.56,0,10/12/18,0,125 MAIN STREET 2ND BLOC,
VA FIXED 30YR- 41,Refinance,UW Approved - Credit,990,1009840,ANDY AMERICA,361550,2.500,1000,.00,500000,,0,.00,70.000/70.000,1428.56,53.000/53.000,0,1530.22,0,10/12/18,0,125 MAIN STREET 2ND BLOC,
VA FIXED 30YR- 41,Refinance,Submitted to Processing,990,1009842,ANDY AMERICA,361550,2.500,1000,.00,500000,,0,.00,70.000/70.000,1428.56,53.000/53.000,0,1530.22,0,10/12/18,0,125 MAIN STREET 2ND BLOC,
VA FIXED 30YR- 41,Refinance,UW Approved - Full,990,1009844,ANDY AMERICA,361550,2.500,1000,.00,500000,,0,.00,70.000/70.000,1428.56,53.000/53.000,0,1530.22,0,10/12/18,0,125 MAIN STREET 2ND BLOC,
VA FIXED 30YR- 41,Refinance,Submitted to Underwriting - Full,990,1009849,ANDY AMERICA,361550,2.500,1000,.00,500000,,0,.00,70.000/70.000,1428.56,53.000/53.000,0,1530.22,0,10/12/18,0,125 MAIN STREET 2ND BLOC,
VA FIXED 30YR- 41,Refinance,RESPA Date present,990,1009851,ANDY AMERICA,361550,2.500,1000,.00,500000,,0,.00,70.000/70.000,1428.56,43.900/43.900,0,1438.56,0,10/12/18,0,125 MAIN STREET 2ND BLOC,
VA FIXED 30YR- 41,Refinance,Submitted to Underwriting - Credit,990,1009857,ANDY AMERICA,361550,2.500,1000,.00,500000,,0,.00,70.000/70.000,1428.56,53.000/53.000,0,1530.22,0,10/12/18,0,125 MAIN STREET 2ND BLOC,
RURAL HOUSING 30YR - 879,Purchase,UW Approved - Full,990,1009874,AMERICA ANDY,353535,2.500,1000,.00,400000,,0,.00,87.500/88.390,1396.89,60.100/60.100,0,1600.60,0,10/12/18,0,125 MAIN STREET 2ND BLOC,
RURAL HOUSING 30YR - 879,Refinance,UW Approved - Full,990,1009875,HOUSE WANNA,353535,2.500,1000,.00,500000,,0,.00,70.000/70.710,1396.89,60.100/60.100,0,1600.60,0,10/12/18,0,125 MAIN STREET 2ND BLOC,
