Loan Program,Purpose of Loan,Status,BranchCode,ApplicationId,BorrowerName,
RURAL HOUSING 30YR - 879,Refinance,RESPA Date Not present,990,1008077,HOUSE WANNA,
RURAL HOUSING 30YR - 879,Refinance,Submitted to Underwriting - Full,990,1008078,HOUSE WANNA,353535,2.500,1000,.00,500000,,0,.00,70.000/70.710,1396.89,59.100/59.100,0,1590.60,0,09/26/18,0,125 MAIN STREET 2ND BLOC,
RURAL HOUSING 30YR - 879,Refinance,UW Approved - Full,990,1008080,HOUSE WANNA,353535,2.500,1000,.00,500000,,0,.00,70.000/70.710,1396.89,59.100/59.100,0,1590.60,0,09/26/18,0,125 MAIN STREET 2ND BLOC,
FNMA 30YR FXD O/O- 683,Purchase,RESPA Date present,990,1008083,AMERICA ANDY,350000,2.500,1000,.00,400000,,0,.00,88.000/88.000,1382.92,96.600/96.600,0,1966.25,0,09/26/18,0,125 MAIN STREET 2ND BLOC,
RURAL HOUSING 30YR - 879,Refinance,Submitted to Processing,990,1008084,HOUSE WANNA,calculating,calculating,1000,.00,500000,,0,.00,70.000/70.710,1396.89,59.100/59.100,0,1590.60,0,09/26/18,0,125 MAIN STREET 2ND BLOC,
FNMA 30YR FXD O/O- 683,Purchase,Submitted to Underwriting - Full,990,1008085,AMERICA ANDY,350000,2.500,1000,.00,400000,,0,.00,88.000/88.000,1382.92,5.800/5.800,0,2057.91,0,09/26/18,0,125 MAIN STREET 2ND BLOC,
FNMA 30YR FXD O/O- 683,Purchase,Submitted to Underwriting - Full,990,1008086,AMERICA ANDY,350000,2.500,1000,.00,400000,,0,.00,88.000/88.000,1382.92,5.800/5.800,0,2057.91,0,09/26/18,0,125 MAIN STREET 2ND BLOC,
FNMA 30YR FXD O/O- 683,Purchase,Submitted to Processing,990,1008087,AMERICA ANDY,calculating,calculating,calculating,.00,400000,,0,.00,88.000/88.000,1382.92,5.800/5.800,0,2057.91,0,09/26/18,0,125 MAIN STREET 2ND BLOC,
FNMA 30YR FXD O/O- 683,Purchase,RESPA Date Not present,990,1008088,AMERICA ANDY,calculating,2.500,1000,.00,400000,,0,.00,88.000/88.000,1382.92,96.600/96.600,0,1966.25,0,09/26/18,0,125 MAIN STREET 2ND BLOC,
RURAL HOUSING 30YR - 879,Refinance,RESPA Date present,990,1008089,HOUSE WANNA,
RURAL HOUSING 30YR - 879,Refinance,RESPA Date Not present,990,1008090,HOUSE WANNA,
RURAL HOUSING 30YR - 879,Refinance,Submitted to Underwriting - Full,990,1008091,HOUSE WANNA,353535,2.500,1000,.00,500000,,0,.00,70.000/70.710,1396.89,59.100/59.100,0,1590.60,0,09/26/18,0,125 MAIN STREET 2ND BLOC,
RURAL HOUSING 30YR - 879,Refinance,UW Approved - Full,990,1008092,HOUSE WANNA,353535,2.500,1000,.00,500000,,0,.00,70.000/70.710,1396.89,59.100/59.100,0,1590.60,0,09/26/18,0,125 MAIN STREET 2ND BLOC,
FNMA 30YR FXD O/O- 683,Purchase,RESPA Date present,990,1008093,AMERICA ANDY,350000,2.500,1000,.00,400000,,0,.00,88.000/88.000,1382.92,96.600/96.600,0,1966.25,0,09/26/18,0,125 MAIN STREET 2ND BLOC,
RURAL HOUSING 30YR - 879,Refinance,Submitted to Processing,990,1008094,HOUSE WANNA,calculating,calculating,1000,.00,500000,,0,.00,70.000/70.710,1396.89,59.100/59.100,0,1590.60,0,09/26/18,0,125 MAIN STREET 2ND BLOC,
FNMA 30YR FXD O/O- 683,Purchase,Submitted to Underwriting - Full,990,1008095,AMERICA ANDY,350000,2.500,1000,.00,400000,,0,.00,88.000/88.000,1382.92,5.800/5.800,0,2057.91,0,09/26/18,0,125 MAIN STREET 2ND BLOC,
FNMA 30YR FXD O/O- 683,Purchase,Submitted to Underwriting - Full,990,1008096,AMERICA ANDY,350000,2.500,1000,.00,400000,,0,.00,88.000/88.000,1382.92,5.800/5.800,0,2057.91,0,09/26/18,0,125 MAIN STREET 2ND BLOC,
FNMA 30YR FXD O/O- 683,Purchase,Submitted to Processing,990,1008097,AMERICA ANDY,350000,2.500,1000,.00,400000,,0,.00,88.000/88.000,1382.92,5.800/5.800,0,2057.91,0,09/26/18,0,125 MAIN STREET 2ND BLOC,
FNMA 30YR FXD O/O- 683,Purchase,RESPA Date Not present,990,1008098,AMERICA ANDY,350000,2.500,1000,.00,400000,,0,.00,88.000/88.000,1382.92,96.600/96.600,0,1966.25,0,09/26/18,0,125 MAIN STREET 2ND BLOC,
RURAL HOUSING 30YR - 879,Refinance,RESPA Date present,990,1008099,HOUSE WANNA,
RURAL HOUSING 30YR - 879,Refinance,RESPA Date Not present,990,1008112,HOUSE WANNA,
RURAL HOUSING 30YR - 879,Refinance,Submitted to Underwriting - Full,990,1008114,HOUSE WANNA,353535,2.500,1000,.00,500000,,0,.00,70.000/70.710,1396.89,59.100/59.100,0,1590.60,0,09/26/18,0,125 MAIN STREET 2ND BLOC,
RURAL HOUSING 30YR - 879,Refinance,UW Approved - Full,990,1008116,HOUSE WANNA,353535,2.500,1000,.00,500000,,0,.00,70.000/70.710,1396.89,59.100/59.100,0,1590.60,0,09/26/18,0,125 MAIN STREET 2ND BLOC,
FNMA 30YR FXD O/O- 683,Purchase,RESPA Date present,990,1008119,AMERICA ANDY,calculating,2.500,1000,.00,400000,,0,.00,88.000/88.000,1382.92,96.600/96.600,0,1966.25,0,09/26/18,0,125 MAIN STREET 2ND BLOC,
RURAL HOUSING 30YR - 879,Refinance,Submitted to Processing,990,1008120,HOUSE WANNA,calculating,calculating,calculating,calculating,500000,,0,.00,70.000/70.710,1396.89,59.100/59.100,0,1590.60,0,09/26/18,0,125 MAIN STREET 2ND BLOC,
FNMA 30YR FXD O/O- 683,Purchase,Submitted to Underwriting - Full,990,1008122,AMERICA ANDY,350000,2.500,1000,.00,400000,,0,.00,88.000/88.000,1382.92,5.800/5.800,0,2057.91,0,09/26/18,0,125 MAIN STREET 2ND BLOC,
FNMA 30YR FXD O/O- 683,Purchase,Submitted to Underwriting - Full,990,1008124,AMERICA ANDY,350000,2.500,1000,.00,400000,,0,.00,88.000/88.000,1382.92,5.800/5.800,0,2057.91,0,09/26/18,0,125 MAIN STREET 2ND BLOC,
FNMA 30YR FXD O/O- 683,Purchase,Submitted to Processing,990,1008127,AMERICA ANDY,350000,2.500,1000,.00,400000,,0,.00,88.000/88.000,1382.92,5.800/5.800,0,2057.91,0,09/26/18,0,125 MAIN STREET 2ND BLOC,
FNMA 30YR FXD O/O- 683,Purchase,RESPA Date Not present,990,1008129,AMERICA ANDY,calculating,2.500,1000,.00,400000,,0,.00,88.000/88.000,1382.92,96.600/96.600,0,1966.25,0,09/26/18,0,125 MAIN STREET 2ND BLOC,
RURAL HOUSING 30YR - 879,Refinance,RESPA Date present,990,1008130,HOUSE WANNA,
RURAL HOUSING 30YR - 879,Refinance,RESPA Date Not present,990,1008132,HOUSE WANNA,
RURAL HOUSING 30YR - 879,Refinance,Submitted to Underwriting - Full,990,1008133,HOUSE WANNA,353535,2.500,1000,.00,500000,,0,.00,70.000/70.710,1396.89,59.100/59.100,0,1590.60,0,09/26/18,0,125 MAIN STREET 2ND BLOC,
RURAL HOUSING 30YR - 879,Refinance,UW Approved - Full,990,1008135,HOUSE WANNA,353535,2.500,1000,.00,500000,,0,.00,70.000/70.710,1396.89,59.100/59.100,0,1590.60,0,09/26/18,0,125 MAIN STREET 2ND BLOC,
FNMA 30YR FXD O/O- 683,Purchase,RESPA Date present,990,1008136,AMERICA ANDY,calculating,calculating,1000,.00,400000,,0,.00,88.000/88.000,1382.92,96.600/96.600,0,1966.25,0,09/26/18,0,125 MAIN STREET 2ND BLOC,
RURAL HOUSING 30YR - 879,Refinance,Submitted to Processing,990,1008137,HOUSE WANNA,calculating,calculating,1000,.00,500000,,0,.00,70.000/70.710,1396.89,59.100/59.100,0,1590.60,0,09/26/18,0,125 MAIN STREET 2ND BLOC,
FNMA 30YR FXD O/O- 683,Purchase,Submitted to Underwriting - Full,990,1008138,AMERICA ANDY,350000,2.500,1000,.00,400000,,0,.00,88.000/88.000,1382.92,5.800/5.800,0,2057.91,0,09/26/18,0,125 MAIN STREET 2ND BLOC,
FNMA 30YR FXD O/O- 683,Purchase,Submitted to Processing,990,1008140,AMERICA ANDY,350000,2.500,1000,.00,400000,,0,.00,88.000/88.000,1382.92,5.800/5.800,0,2057.91,0,09/26/18,0,125 MAIN STREET 2ND BLOC,
RURAL HOUSING 30YR - 879,Refinance,UW Approved - Full,990,1008157,HOUSE WANNA,353535,2.500,1000,.00,500000,,0,.00,70.000/70.710,1396.89,59.100/59.100,0,1590.60,0,09/26/18,0,125 MAIN STREET 2ND BLOC,
FNMA 30YR FXD O/O- 683,Purchase,Submitted to Processing,990,1008159,AMERICA ANDY,calculating,2.500,1000,.00,400000,,0,.00,88.000/88.000,1382.92,5.800/5.800,0,2057.91,0,09/26/18,0,125 MAIN STREET 2ND BLOC,
RURAL HOUSING 30YR - 879,Refinance,UW Approved - Full,990,1008162,HOUSE WANNA,353535,2.500,1000,.00,500000,,0,.00,70.000/70.710,1396.89,59.100/59.100,0,1590.60,0,09/26/18,0,125 MAIN STREET 2ND BLOC,
FNMA 30YR FXD O/O- 683,Purchase,Submitted to Processing,990,1008164,AMERICA ANDY,350000,2.500,1000,.00,400000,,0,.00,88.000/88.000,1382.92,5.800/5.800,0,2057.91,0,09/26/18,0,125 MAIN STREET 2ND BLOC,
